tb/matmul/sq_int8_16x16/sim.log

################################################################
  Matrix Multiplication OS Test: 16x16 x 16x16 = 16x16
  Data type: INT8
################################################################
    M_DIM readback = 16
    N_DIM readback = 16
    K_DIM readback = 16
    NPU ctrl state=0, tile_i=15, tile_j=15, tile_count=256/256
    DMA state=0, r_pending=0
    Checking 16x16 results...
    C[0][0]: addr=0x00010400 got=0xffffdf2f exp=0xffffdf2f
    C[0][1]: addr=0x00010404 got=0x0000093a exp=0x0000093a
    C[0][2]: addr=0x00010408 got=0xfffff982 exp=0xfffff982
    C[0][3]: addr=0x0001040c got=0x00000fcb exp=0x00000fcb
    C[0][4]: addr=0x00010410 got=0x00000536 exp=0x00000536
    C[0][5]: addr=0x00010414 got=0x0000128c exp=0x0000128c
    C[0][6]: addr=0x00010418 got=0xffffe6cd exp=0xffffe6cd
    C[0][7]: addr=0x0001041c got=0x000018d7 exp=0x000018d7
    C[0][8]: addr=0x00010420 got=0xfffffefd exp=0xfffffefd
    C[0][9]: addr=0x00010424 got=0xffffd1a4 exp=0xffffd1a4
    C[0][10]: addr=0x00010428 got=0x00000e4a exp=0x00000e4a
    C[0][11]: addr=0x0001042c got=0x00000da8 exp=0x00000da8
    C[0][12]: addr=0x00010430 got=0x000009d2 exp=0x000009d2
    C[0][13]: addr=0x00010434 got=0x000007fe exp=0x000007fe
    C[0][14]: addr=0x00010438 got=0xffffe16b exp=0xffffe16b
    C[0][15]: addr=0x0001043c got=0xfffffb34 exp=0xfffffb34
    C[1][0]: addr=0x00010440 got=0xfffff7d0 exp=0xfffff7d0
    C[1][1]: addr=0x00010444 got=0x000007e7 exp=0x000007e7
    C[1][2]: addr=0x00010448 got=0x000004fd exp=0x000004fd
    C[1][3]: addr=0x0001044c got=0x00000bf7 exp=0x00000bf7
    C[1][4]: addr=0x00010450 got=0x00000066 exp=0x00000066
    C[1][5]: addr=0x00010454 got=0x000010a0 exp=0x000010a0
    C[1][6]: addr=0x00010458 got=0x000016f3 exp=0x000016f3
    C[1][7]: addr=0x0001045c got=0xffffed01 exp=0xffffed01
    C[1][8]: addr=0x00010460 got=0xffffe3de exp=0xffffe3de
    C[1][9]: addr=0x00010464 got=0xffffe16b exp=0xffffe16b
    C[1][10]: addr=0x00010468 got=0x00000811 exp=0x00000811
    C[1][11]: addr=0x0001046c got=0xffffe23c exp=0xffffe23c
    C[1][12]: addr=0x00010470 got=0xfffff2e0 exp=0xfffff2e0
    C[1][13]: addr=0x00010474 got=0x00001563 exp=0x00001563
    C[1][14]: addr=0x00010478 got=0x00002006 exp=0x00002006
    C[1][15]: addr=0x0001047c got=0x00001f0f exp=0x00001f0f
    C[2][0]: addr=0x00010480 got=0x00000663 exp=0x00000663
    C[2][1]: addr=0x00010484 got=0x000001b6 exp=0x000001b6
    C[2][2]: addr=0x00010488 got=0xffffef57 exp=0xffffef57
    C[2][3]: addr=0x0001048c got=0xfffffce9 exp=0xfffffce9
    C[2][4]: addr=0x00010490 got=0x00000cce exp=0x00000cce
    C[2][5]: addr=0x00010494 got=0x000002a5 exp=0x000002a5
    C[2][6]: addr=0x00010498 got=0x000003a4 exp=0x000003a4
    C[2][7]: addr=0x0001049c got=0xffffdb62 exp=0xffffdb62
    C[2][8]: addr=0x000104a0 got=0xffffdc57 exp=0xffffdc57
    C[2][9]: addr=0x000104a4 got=0xffffff90 exp=0xffffff90
    C[2][10]: addr=0x000104a8 got=0x00000e5e exp=0x00000e5e
    C[2][11]: addr=0x000104ac got=0xffffefd4 exp=0xffffefd4
    C[2][12]: addr=0x000104b0 got=0x00000177 exp=0x00000177
    C[2][13]: addr=0x000104b4 got=0x00000efc exp=0x00000efc
    C[2][14]: addr=0x000104b8 got=0x00001050 exp=0x00001050
    C[2][15]: addr=0x000104bc got=0x00001b9f exp=0x00001b9f
    C[3][0]: addr=0x000104c0 got=0xfffffb2d exp=0xfffffb2d
    C[3][1]: addr=0x000104c4 got=0xfffff73c exp=0xfffff73c
    C[3][2]: addr=0x000104c8 got=0xffffebdc exp=0xffffebdc
    C[3][3]: addr=0x000104cc got=0xfffffc6f exp=0xfffffc6f
    C[3][4]: addr=0x000104d0 got=0xfffff212 exp=0xfffff212
    C[3][5]: addr=0x000104d4 got=0xfffff51f exp=0xfffff51f
    C[3][6]: addr=0x000104d8 got=0xfffffc2c exp=0xfffffc2c
    C[3][7]: addr=0x000104dc got=0x00001c3d exp=0x00001c3d
    C[3][8]: addr=0x000104e0 got=0x00000747 exp=0x00000747
    C[3][9]: addr=0x000104e4 got=0xffffe4b4 exp=0xffffe4b4
    C[3][10]: addr=0x000104e8 got=0xfffff6bf exp=0xfffff6bf
    C[3][11]: addr=0x000104ec got=0x00001b3f exp=0x00001b3f
    C[3][12]: addr=0x000104f0 got=0x000018bf exp=0x000018bf
    C[3][13]: addr=0x000104f4 got=0xfffff1f0 exp=0xfffff1f0
    C[3][14]: addr=0x000104f8 got=0xffffe9fc exp=0xffffe9fc
    C[3][15]: addr=0x000104fc got=0xfffff76f exp=0xfffff76f
    C[4][0]: addr=0x00010500 got=0x00000ac4 exp=0x00000ac4
    C[4][1]: addr=0x00010504 got=0x000002e8 exp=0x000002e8
    C[4][2]: addr=0x00010508 got=0xffffda7f exp=0xffffda7f
    C[4][3]: addr=0x0001050c got=0xfffffd88 exp=0xfffffd88
    C[4][4]: addr=0x00010510 got=0x0000206c exp=0x0000206c
    C[4][5]: addr=0x00010514 got=0xffffe6a4 exp=0xffffe6a4
    C[4][6]: addr=0x00010518 got=0xfffffa33 exp=0xfffffa33
    C[4][7]: addr=0x0001051c got=0xfffff666 exp=0xfffff666
    C[4][8]: addr=0x00010520 got=0xffffe8bf exp=0xffffe8bf
    C[4][9]: addr=0x00010524 got=0xffffe42e exp=0xffffe42e
    C[4][10]: addr=0x00010528 got=0xffffec43 exp=0xffffec43
    C[4][11]: addr=0x0001052c got=0xffffdb85 exp=0xffffdb85
    C[4][12]: addr=0x00010530 got=0x000007d3 exp=0x000007d3
    C[4][13]: addr=0x00010534 got=0xffffefe0 exp=0xffffefe0
    C[4][14]: addr=0x00010538 got=0xfffff113 exp=0xfffff113
    C[4][15]: addr=0x0001053c got=0xfffff8cb exp=0xfffff8cb
    C[5][0]: addr=0x00010540 got=0xffffe51d exp=0xffffe51d
    C[5][1]: addr=0x00010544 got=0xffffd719 exp=0xffffd719
    C[5][2]: addr=0x00010548 got=0xfffff6ad exp=0xfffff6ad
    C[5][3]: addr=0x0001054c got=0x00000534 exp=0x00000534
    C[5][4]: addr=0x00010550 got=0xfffff450 exp=0xfffff450
    C[5][5]: addr=0x00010554 got=0xffffd92e exp=0xffffd92e
    C[5][6]: addr=0x00010558 got=0xffffeeca exp=0xffffeeca
    C[5][7]: addr=0x0001055c got=0x0000141c exp=0x0000141c
    C[5][8]: addr=0x00010560 got=0xfffff919 exp=0xfffff919
    C[5][9]: addr=0x00010564 got=0xfffffce2 exp=0xfffffce2
    C[5][10]: addr=0x00010568 got=0xffffeea4 exp=0xffffeea4
    C[5][11]: addr=0x0001056c got=0xfffff998 exp=0xfffff998
    C[5][12]: addr=0x00010570 got=0x000015fb exp=0x000015fb
    C[5][13]: addr=0x00010574 got=0x000004e5 exp=0x000004e5
    C[5][14]: addr=0x00010578 got=0xffffff99 exp=0xffffff99
    C[5][15]: addr=0x0001057c got=0xfffffaf2 exp=0xfffffaf2
    C[6][0]: addr=0x00010580 got=0xffffeafe exp=0xffffeafe
    C[6][1]: addr=0x00010584 got=0x00000ca2 exp=0x00000ca2
    C[6][2]: addr=0x00010588 got=0x00001ea8 exp=0x00001ea8
    C[6][3]: addr=0x0001058c got=0xffffe272 exp=0xffffe272
    C[6][4]: addr=0x00010590 got=0x00001355 exp=0x00001355
    C[6][5]: addr=0x00010594 got=0x00001574 exp=0x00001574
    C[6][6]: addr=0x00010598 got=0xfffff431 exp=0xfffff431
    C[6][7]: addr=0x0001059c got=0x00000d23 exp=0x00000d23
    C[6][8]: addr=0x000105a0 got=0x000002af exp=0x000002af
    C[6][9]: addr=0x000105a4 got=0x00000c46 exp=0x00000c46
    C[6][10]: addr=0x000105a8 got=0x00001232 exp=0x00001232
    C[6][11]: addr=0x000105ac got=0xfffff81b exp=0xfffff81b
    C[6][12]: addr=0x000105b0 got=0xfffff377 exp=0xfffff377
    C[6][13]: addr=0x000105b4 got=0x000008fb exp=0x000008fb
    C[6][14]: addr=0x000105b8 got=0xfffff5c9 exp=0xfffff5c9
    C[6][15]: addr=0x000105bc got=0xfffff7f9 exp=0xfffff7f9
    C[7][0]: addr=0x000105c0 got=0xffffda61 exp=0xffffda61
    C[7][1]: addr=0x000105c4 got=0x00002083 exp=0x00002083
    C[7][2]: addr=0x000105c8 got=0xffffe19a exp=0xffffe19a
    C[7][3]: addr=0x000105cc got=0x00000cf4 exp=0x00000cf4
    C[7][4]: addr=0x000105d0 got=0xfffffead exp=0xfffffead
    C[7][5]: addr=0x000105d4 got=0xffffce0c exp=0xffffce0c
    C[7][6]: addr=0x000105d8 got=0xffffedd6 exp=0xffffedd6
    C[7][7]: addr=0x000105dc got=0xfffff0f8 exp=0xfffff0f8
    C[7][8]: addr=0x000105e0 got=0xffffff42 exp=0xffffff42
    C[7][9]: addr=0x000105e4 got=0x00000fe8 exp=0x00000fe8
    C[7][10]: addr=0x000105e8 got=0x00001454 exp=0x00001454
    C[7][11]: addr=0x000105ec got=0xffffd758 exp=0xffffd758
    C[7][12]: addr=0x000105f0 got=0x00000081 exp=0x00000081
    C[7][13]: addr=0x000105f4 got=0x000027bb exp=0x000027bb
    C[7][14]: addr=0x000105f8 got=0xffffe591 exp=0xffffe591
    C[7][15]: addr=0x000105fc got=0x00000df6 exp=0x00000df6
    C[8][0]: addr=0x00010600 got=0x000005d9 exp=0x000005d9
    C[8][1]: addr=0x00010604 got=0xfffff4fb exp=0xfffff4fb
    C[8][2]: addr=0x00010608 got=0xfffff559 exp=0xfffff559
    C[8][3]: addr=0x0001060c got=0x000002fc exp=0x000002fc
    C[8][4]: addr=0x00010610 got=0x0000159d exp=0x0000159d
    C[8][5]: addr=0x00010614 got=0x00000e4b exp=0x00000e4b
    C[8][6]: addr=0x00010618 got=0xfffffa47 exp=0xfffffa47
    C[8][7]: addr=0x0001061c got=0xffffffd2 exp=0xffffffd2
    C[8][8]: addr=0x00010620 got=0xffffe1fe exp=0xffffe1fe
    C[8][9]: addr=0x00010624 got=0xffffe787 exp=0xffffe787
    C[8][10]: addr=0x00010628 got=0xffffe4d8 exp=0xffffe4d8
    C[8][11]: addr=0x0001062c got=0xfffff085 exp=0xfffff085
    C[8][12]: addr=0x00010630 got=0x00000288 exp=0x00000288
    C[8][13]: addr=0x00010634 got=0xffffee30 exp=0xffffee30
    C[8][14]: addr=0x00010638 got=0x000008ba exp=0x000008ba
    C[8][15]: addr=0x0001063c got=0xfffff68c exp=0xfffff68c
    C[9][0]: addr=0x00010640 got=0xffffd7a7 exp=0xffffd7a7
    C[9][1]: addr=0x00010644 got=0xfffff307 exp=0xfffff307
    C[9][2]: addr=0x00010648 got=0x0000144f exp=0x0000144f
    C[9][3]: addr=0x0001064c got=0xfffffc21 exp=0xfffffc21
    C[9][4]: addr=0x00010650 got=0xfffff70f exp=0xfffff70f
    C[9][5]: addr=0x00010654 got=0xffffe0c5 exp=0xffffe0c5
    C[9][6]: addr=0x00010658 got=0xffffe85e exp=0xffffe85e
    C[9][7]: addr=0x0001065c got=0x00002437 exp=0x00002437
    C[9][8]: addr=0x00010660 got=0x00001780 exp=0x00001780
    C[9][9]: addr=0x00010664 got=0x000003a5 exp=0x000003a5
    C[9][10]: addr=0x00010668 got=0x000008ff exp=0x000008ff
    C[9][11]: addr=0x0001066c got=0xfffff6b4 exp=0xfffff6b4
    C[9][12]: addr=0x00010670 got=0x00000628 exp=0x00000628
    C[9][13]: addr=0x00010674 got=0x00000c89 exp=0x00000c89
    C[9][14]: addr=0x00010678 got=0xffffe63b exp=0xffffe63b
    C[9][15]: addr=0x0001067c got=0xfffff988 exp=0xfffff988
    C[10][0]: addr=0x00010680 got=0x00000301 exp=0x00000301
    C[10][1]: addr=0x00010684 got=0xfffff1c9 exp=0xfffff1c9
    C[10][2]: addr=0x00010688 got=0x00000c33 exp=0x00000c33
    C[10][3]: addr=0x0001068c got=0xffffef78 exp=0xffffef78
    C[10][4]: addr=0x00010690 got=0x00000e0d exp=0x00000e0d
    C[10][5]: addr=0x00010694 got=0x000007b7 exp=0x000007b7
    C[10][6]: addr=0x00010698 got=0xfffffc85 exp=0xfffffc85
    C[10][7]: addr=0x0001069c got=0xffffef9a exp=0xffffef9a
    C[10][8]: addr=0x000106a0 got=0x000008c1 exp=0x000008c1
    C[10][9]: addr=0x000106a4 got=0xffffdfde exp=0xffffdfde
    C[10][10]: addr=0x000106a8 got=0x00001484 exp=0x00001484
    C[10][11]: addr=0x000106ac got=0xfffff544 exp=0xfffff544
    C[10][12]: addr=0x000106b0 got=0x000004df exp=0x000004df
    C[10][13]: addr=0x000106b4 got=0xfffffc69 exp=0xfffffc69
    C[10][14]: addr=0x000106b8 got=0xfffff258 exp=0xfffff258
    C[10][15]: addr=0x000106bc got=0x00000bb9 exp=0x00000bb9
    C[11][0]: addr=0x000106c0 got=0x000023d8 exp=0x000023d8
    C[11][1]: addr=0x000106c4 got=0xffffeb56 exp=0xffffeb56
    C[11][2]: addr=0x000106c8 got=0xfffff3d1 exp=0xfffff3d1
    C[11][3]: addr=0x000106cc got=0xffffebeb exp=0xffffebeb
    C[11][4]: addr=0x000106d0 got=0x00000a27 exp=0x00000a27
    C[11][5]: addr=0x000106d4 got=0xfffffc7c exp=0xfffffc7c
    C[11][6]: addr=0x000106d8 got=0xfffff25e exp=0xfffff25e
    C[11][7]: addr=0x000106dc got=0xffffed3f exp=0xffffed3f
    C[11][8]: addr=0x000106e0 got=0xffffff45 exp=0xffffff45
    C[11][9]: addr=0x000106e4 got=0x00001b00 exp=0x00001b00
    C[11][10]: addr=0x000106e8 got=0x0000038f exp=0x0000038f
    C[11][11]: addr=0x000106ec got=0x000019ef exp=0x000019ef
    C[11][12]: addr=0x000106f0 got=0x00001dbc exp=0x00001dbc
    C[11][13]: addr=0x000106f4 got=0xffffd988 exp=0xffffd988
    C[11][14]: addr=0x000106f8 got=0xfffff7c1 exp=0xfffff7c1
    C[11][15]: addr=0x000106fc got=0xfffff410 exp=0xfffff410
    C[12][0]: addr=0x00010700 got=0xfffff3eb exp=0xfffff3eb
    C[12][1]: addr=0x00010704 got=0xffffe32b exp=0xffffe32b
    C[12][2]: addr=0x00010708 got=0x000002d2 exp=0x000002d2
    C[12][3]: addr=0x0001070c got=0x00002a81 exp=0x00002a81
    C[12][4]: addr=0x00010710 got=0xfffffc37 exp=0xfffffc37
    C[12][5]: addr=0x00010714 got=0x00000565 exp=0x00000565
    C[12][6]: addr=0x00010718 got=0x000014f6 exp=0x000014f6
    C[12][7]: addr=0x0001071c got=0xffffda1d exp=0xffffda1d
    C[12][8]: addr=0x00010720 got=0xfffff168 exp=0xfffff168
    C[12][9]: addr=0x00010724 got=0x0000102b exp=0x0000102b
    C[12][10]: addr=0x00010728 got=0xfffff327 exp=0xfffff327
    C[12][11]: addr=0x0001072c got=0xfffffacf exp=0xfffffacf
    C[12][12]: addr=0x00010730 got=0x00000b43 exp=0x00000b43
    C[12][13]: addr=0x00010734 got=0xfffffb1a exp=0xfffffb1a
    C[12][14]: addr=0x00010738 got=0x000016cc exp=0x000016cc
    C[12][15]: addr=0x0001073c got=0x00000e13 exp=0x00000e13
    C[13][0]: addr=0x00010740 got=0x00003239 exp=0x00003239
    C[13][1]: addr=0x00010744 got=0xffffdcd5 exp=0xffffdcd5
    C[13][2]: addr=0x00010748 got=0xffffd7dd exp=0xffffd7dd
    C[13][3]: addr=0x0001074c got=0xfffff355 exp=0xfffff355
    C[13][4]: addr=0x00010750 got=0x00001227 exp=0x00001227
    C[13][5]: addr=0x00010754 got=0xffffdab8 exp=0xffffdab8
    C[13][6]: addr=0x00010758 got=0xfffff5c5 exp=0xfffff5c5
    C[13][7]: addr=0x0001075c got=0xfffffcec exp=0xfffffcec
    C[13][8]: addr=0x00010760 got=0xfffff68e exp=0xfffff68e
    C[13][9]: addr=0x00010764 got=0x000004c0 exp=0x000004c0
    C[13][10]: addr=0x00010768 got=0xffffe8fd exp=0xffffe8fd
    C[13][11]: addr=0x0001076c got=0x00001a0f exp=0x00001a0f
    C[13][12]: addr=0x00010770 got=0x00001e36 exp=0x00001e36
    C[13][13]: addr=0x00010774 got=0xffffd549 exp=0xffffd549
    C[13][14]: addr=0x00010778 got=0x000000ba exp=0x000000ba
    C[13][15]: addr=0x0001077c got=0xfffffc4c exp=0xfffffc4c
    C[14][0]: addr=0x00010780 got=0xffffed12 exp=0xffffed12
    C[14][1]: addr=0x00010784 got=0x0000083c exp=0x0000083c
    C[14][2]: addr=0x00010788 got=0xfffff83d exp=0xfffff83d
    C[14][3]: addr=0x0001078c got=0xfffffd8a exp=0xfffffd8a
    C[14][4]: addr=0x00010790 got=0xffffe95d exp=0xffffe95d
    C[14][5]: addr=0x00010794 got=0xffffe551 exp=0xffffe551
    C[14][6]: addr=0x00010798 got=0xffffef17 exp=0xffffef17
    C[14][7]: addr=0x0001079c got=0x0000031f exp=0x0000031f
    C[14][8]: addr=0x000107a0 got=0x00000f96 exp=0x00000f96
    C[14][9]: addr=0x000107a4 got=0x0000229c exp=0x0000229c
    C[14][10]: addr=0x000107a8 got=0x000006e6 exp=0x000006e6
    C[14][11]: addr=0x000107ac got=0xfffffcb1 exp=0xfffffcb1
    C[14][12]: addr=0x000107b0 got=0x000006b7 exp=0x000006b7
    C[14][13]: addr=0x000107b4 got=0x00001b01 exp=0x00001b01
    C[14][14]: addr=0x000107b8 got=0xfffff092 exp=0xfffff092
    C[14][15]: addr=0x000107bc got=0xfffff845 exp=0xfffff845
    C[15][0]: addr=0x000107c0 got=0x00000468 exp=0x00000468
    C[15][1]: addr=0x000107c4 got=0xffffedc2 exp=0xffffedc2
    C[15][2]: addr=0x000107c8 got=0xffffecc3 exp=0xffffecc3
    C[15][3]: addr=0x000107cc got=0xffffe5b0 exp=0xffffe5b0
    C[15][4]: addr=0x000107d0 got=0x00000bb4 exp=0x00000bb4
    C[15][5]: addr=0x000107d4 got=0xfffffd78 exp=0xfffffd78
    C[15][6]: addr=0x000107d8 got=0xfffffa99 exp=0xfffffa99
    C[15][7]: addr=0x000107dc got=0xfffff3f9 exp=0xfffff3f9
    C[15][8]: addr=0x000107e0 got=0xffffd6f9 exp=0xffffd6f9
    C[15][9]: addr=0x000107e4 got=0xffffea21 exp=0xffffea21
    C[15][10]: addr=0x000107e8 got=0x0000174a exp=0x0000174a
    C[15][11]: addr=0x000107ec got=0xffffffb8 exp=0xffffffb8
    C[15][12]: addr=0x000107f0 got=0x0000217f exp=0x0000217f
    C[15][13]: addr=0x000107f4 got=0x000003ad exp=0x000003ad
    C[15][14]: addr=0x000107f8 got=0x0000122b exp=0x0000122b
    C[15][15]: addr=0x000107fc got=0x000019f1 exp=0x000019f1
    Results: 256 pass, 0 fail

################################################################
  ALL 256 CHECKS PASSED
################################################################
D:\NPU_prj\tb\matmul\tb_matmul_os.v:400: $finish called at 169485000 (1ps)
