tb/matmul/sq_fp16_8x8/sim.log

################################################################
  Matrix Multiplication OS Test: 8x8 x 8x8 = 8x8
  Data type: FP16
################################################################
    M_DIM readback = 8
    N_DIM readback = 8
    K_DIM readback = 8
    NPU ctrl state=0, tile_i=7, tile_j=7, tile_count=64/64
    DMA state=0, r_pending=0
    Checking 8x8 results...
    C[0][0]: addr=0x00010300 got=0xbfd00000 exp=0xbfd00000
    C[0][1]: addr=0x00010304 got=0x40380000 exp=0x40380000
    C[0][2]: addr=0x00010308 got=0x40a00000 exp=0x40a00000
    C[0][3]: addr=0x0001030c got=0x3fa00000 exp=0x3fa00000
    C[0][4]: addr=0x00010310 got=0xc0700000 exp=0xc0700000
    C[0][5]: addr=0x00010314 got=0xc0a00000 exp=0xc0a00000
    C[0][6]: addr=0x00010318 got=0x40600000 exp=0x40600000
    C[0][7]: addr=0x0001031c got=0xc0980000 exp=0xc0980000
    C[1][0]: addr=0x00010320 got=0xc15c0000 exp=0xc15c0000
    C[1][1]: addr=0x00010324 got=0xbe800000 exp=0xbe800000
    C[1][2]: addr=0x00010328 got=0x40500000 exp=0x40500000
    C[1][3]: addr=0x0001032c got=0xc10e0000 exp=0xc10e0000
    C[1][4]: addr=0x00010330 got=0x40980000 exp=0x40980000
    C[1][5]: addr=0x00010334 got=0x3ff00000 exp=0x3ff00000
    C[1][6]: addr=0x00010338 got=0xc09c0000 exp=0xc09c0000
    C[1][7]: addr=0x0001033c got=0x3ff00000 exp=0x3ff00000
    C[2][0]: addr=0x00010340 got=0xc0f40000 exp=0xc0f40000
    C[2][1]: addr=0x00010344 got=0x3f000000 exp=0x3f000000
    C[2][2]: addr=0x00010348 got=0x40a80000 exp=0x40a80000
    C[2][3]: addr=0x0001034c got=0xc0800000 exp=0xc0800000
    C[2][4]: addr=0x00010350 got=0x40900000 exp=0x40900000
    C[2][5]: addr=0x00010354 got=0xc0780000 exp=0xc0780000
    C[2][6]: addr=0x00010358 got=0x40840000 exp=0x40840000
    C[2][7]: addr=0x0001035c got=0x40840000 exp=0x40840000
    C[3][0]: addr=0x00010360 got=0x3f200000 exp=0x3f200000
    C[3][1]: addr=0x00010364 got=0x3fe00000 exp=0x3fe00000
    C[3][2]: addr=0x00010368 got=0x3d800000 exp=0x3d800000
    C[3][3]: addr=0x0001036c got=0xc0480000 exp=0xc0480000
    C[3][4]: addr=0x00010370 got=0xc0180000 exp=0xc0180000
    C[3][5]: addr=0x00010374 got=0xbfa00000 exp=0xbfa00000
    C[3][6]: addr=0x00010378 got=0xc0ce0000 exp=0xc0ce0000
    C[3][7]: addr=0x0001037c got=0xc0380000 exp=0xc0380000
    C[4][0]: addr=0x00010380 got=0xc0e40000 exp=0xc0e40000
    C[4][1]: addr=0x00010384 got=0x40e00000 exp=0x40e00000
    C[4][2]: addr=0x00010388 got=0x40880000 exp=0x40880000
    C[4][3]: addr=0x0001038c got=0x3ec00000 exp=0x3ec00000
    C[4][4]: addr=0x00010390 got=0xbf900000 exp=0xbf900000
    C[4][5]: addr=0x00010394 got=0xbf400000 exp=0xbf400000
    C[4][6]: addr=0x00010398 got=0x3fc00000 exp=0x3fc00000
    C[4][7]: addr=0x0001039c got=0xbfe00000 exp=0xbfe00000
    C[5][0]: addr=0x000103a0 got=0x40b00000 exp=0x40b00000
    C[5][1]: addr=0x000103a4 got=0x3fb80000 exp=0x3fb80000
    C[5][2]: addr=0x000103a8 got=0xc0e80000 exp=0xc0e80000
    C[5][3]: addr=0x000103ac got=0xc0240000 exp=0xc0240000
    C[5][4]: addr=0x000103b0 got=0xc0600000 exp=0xc0600000
    C[5][5]: addr=0x000103b4 got=0xbfb00000 exp=0xbfb00000
    C[5][6]: addr=0x000103b8 got=0xc1320000 exp=0xc1320000
    C[5][7]: addr=0x000103bc got=0xc05c0000 exp=0xc05c0000
    C[6][0]: addr=0x000103c0 got=0xc0c00000 exp=0xc0c00000
    C[6][1]: addr=0x000103c4 got=0xbe000000 exp=0xbe000000
    C[6][2]: addr=0x000103c8 got=0x3f500000 exp=0x3f500000
    C[6][3]: addr=0x000103cc got=0xc10d0000 exp=0xc10d0000
    C[6][4]: addr=0x000103d0 got=0x40500000 exp=0x40500000
    C[6][5]: addr=0x000103d4 got=0xc08a0000 exp=0xc08a0000
    C[6][6]: addr=0x000103d8 got=0xc1060000 exp=0xc1060000
    C[6][7]: addr=0x000103dc got=0x3e800000 exp=0x3e800000
    C[7][0]: addr=0x000103e0 got=0x40ec0000 exp=0x40ec0000
    C[7][1]: addr=0x000103e4 got=0xc0080000 exp=0xc0080000
    C[7][2]: addr=0x000103e8 got=0x3fe00000 exp=0x3fe00000
    C[7][3]: addr=0x000103ec got=0x3f600000 exp=0x3f600000
    C[7][4]: addr=0x000103f0 got=0x3f600000 exp=0x3f600000
    C[7][5]: addr=0x000103f4 got=0xc09c0000 exp=0xc09c0000
    C[7][6]: addr=0x000103f8 got=0xbfd00000 exp=0xbfd00000
    C[7][7]: addr=0x000103fc got=0xc0940000 exp=0xc0940000
    Results: 64 pass, 0 fail

################################################################
  ALL 64 CHECKS PASSED
################################################################
D:\NPU_prj\tb\matmul\tb_matmul_os.v:400: $finish called at 42765000 (1ps)
