test_pe_fix.vcd
$date
	Thu Apr 09 11:26:24 2026
$end
$version
	Icarus Verilog
$end
$timescale
	1ps
$end
$scope module test_pe_fix $end
$var wire 1 ! valid_out $end
$var wire 32 " acc_out [31:0] $end
$var parameter 32 # ACC_W $end
$var parameter 32 $ CLK_PERIOD $end
$var parameter 32 % DATA_W $end
$var reg 16 & a_in [15:0] $end
$var reg 32 ' acc_in [31:0] $end
$var reg 1 ( clk $end
$var reg 1 ) en $end
$var reg 32 * external_accumulator [31:0] $end
$var reg 1 + flush $end
$var reg 1 , load_w $end
$var reg 1 - mode $end
$var reg 1 . rst_n $end
$var reg 1 / stat_mode $end
$var reg 16 0 w_in [15:0] $end
$scope module u_pe $end
$var wire 16 1 a_in [15:0] $end
$var wire 32 2 acc_in [31:0] $end
$var wire 1 ( clk $end
$var wire 1 ) en $end
$var wire 1 + flush $end
$var wire 1 , load_w $end
$var wire 1 - mode $end
$var wire 1 . rst_n $end
$var wire 1 / stat_mode $end
$var wire 16 3 w_in [15:0] $end
$var wire 8 4 int8_w [7:0] $end
$var wire 32 5 int8_prod [31:0] $end
$var wire 16 6 int8_mul_16 [15:0] $end
$var wire 8 7 int8_a [7:0] $end
$var wire 32 8 fp32_sum [31:0] $end
$var wire 32 9 fp32_b [31:0] $end
$var wire 32 : fp32_a [31:0] $end
$var wire 32 ; fp16_mul_out [31:0] $end
$var parameter 32 < ACC_W $end
$var parameter 32 = DATA_W $end
$var reg 32 > acc_out [31:0] $end
$var reg 32 ? os_acc [31:0] $end
$var reg 16 @ s0_a [15:0] $end
$var reg 1 A s0_flush $end
$var reg 1 B s0_mode $end
$var reg 1 C s0_stat $end
$var reg 1 D s0_valid $end
$var reg 16 E s0_w [15:0] $end
$var reg 32 F s1_acc_in [31:0] $end
$var reg 1 G s1_flush $end
$var reg 1 H s1_mode $end
$var reg 32 I s1_mul [31:0] $end
$var reg 1 J s1_stat $end
$var reg 1 K s1_valid $end
$var reg 1 ! valid_out $end
$var reg 16 L weight_reg [15:0] $end
$var reg 32 M ws_acc [31:0] $end
$scope function fp16_to_fp32 $end
$var reg 5 N exp16 [4:0] $end
$var reg 16 O fp16 [15:0] $end
$var reg 1 P is_inf $end
$var reg 1 Q is_nan $end
$var reg 1 R is_zero $end
$upscope $end
$scope module u_fp16_mul $end
$var wire 1 S _unused $end
$var wire 16 T a [15:0] $end
$var wire 1 U a_inf $end
$var wire 1 V a_nan $end
$var wire 1 W a_zero $end
$var wire 16 X b [15:0] $end
$var wire 1 Y b_inf $end
$var wire 1 Z b_nan $end
$var wire 1 [ b_zero $end
$var wire 1 ( clk $end
$var wire 1 \ do_inc $end
$var wire 1 ) en $end
$var wire 1 ] exp_ovf $end
$var wire 1 ^ is_inf $end
$var wire 1 _ is_nan $end
$var wire 1 ` is_zero $end
$var wire 1 a lz1 $end
$var wire 1 b lz10 $end
$var wire 1 c lz11 $end
$var wire 1 d lz12 $end
$var wire 1 e lz13 $end
$var wire 1 f lz14 $end
$var wire 1 g lz15 $end
$var wire 1 h lz16 $end
$var wire 1 i lz17 $end
$var wire 1 j lz18 $end
$var wire 1 k lz19 $end
$var wire 1 l lz2 $end
$var wire 1 m lz20 $end
$var wire 1 n lz21 $end
$var wire 1 o lz3 $end
$var wire 1 p lz4 $end
$var wire 1 q lz5 $end
$var wire 1 r lz6 $end
$var wire 1 s lz7 $end
$var wire 1 t lz8 $end
$var wire 1 u lz9 $end
$var wire 32 v result [31:0] $end
$var wire 1 . rst_n $end
$var wire 1 w sign_r $end
$var wire 1 x sub_do_inc $end
$var wire 22 y wb [21:0] $end
$var wire 22 z wa [21:0] $end
$var wire 1 { too_small $end
$var wire 1 | sub_sticky $end
$var wire 22 } sub_s5 [21:0] $end
$var wire 22 ~ sub_s4 [21:0] $end
$var wire 22 !" sub_s3 [21:0] $end
$var wire 22 "" sub_s2 [21:0] $end
$var wire 22 #" sub_s1 [21:0] $end
$var wire 1 $" sub_rounds_to_normal $end
$var wire 10 %" sub_mant_raw [9:0] $end
$var wire 10 &" sub_mant_r [9:0] $end
$var wire 11 '" sub_mant_ext [10:0] $end
$var wire 22 (" sub_in [21:0] $end
$var wire 1 )" sub_guard $end
$var wire 1 *" sticky_raw $end
$var wire 22 +" sticky_mask [21:0] $end
$var wire 1 ," sb $end
$var wire 1 -" sa $end
$var wire 22 ." rs5 [21:0] $end
$var wire 22 /" rs4 [21:0] $end
$var wire 22 0" rs3 [21:0] $end
$var wire 22 1" rs2 [21:0] $end
$var wire 22 2" rs1 [21:0] $end
$var wire 5 3" rs [4:0] $end
$var wire 1 4" rnd_ovf $end
$var wire 44 5" prod_full [43:0] $end
$var wire 22 6" prod [21:0] $end
$var wire 10 7" mb [9:0] $end
$var wire 10 8" mant_r_raw [9:0] $end
$var wire 10 9" mant_norm [9:0] $end
$var wire 11 :" mant_ext [10:0] $end
$var wire 11 ;" mant_b [10:0] $end
$var wire 11 <" mant_a [10:0] $end
$var wire 10 =" ma [9:0] $end
$var wire 5 >" lzc [4:0] $end
$var wire 1 ?" lz0 $end
$var wire 1 @" is_sub $end
$var wire 1 A" guard_bit $end
$var wire 16 B" fp16_result [15:0] $end
$var wire 32 C" fp16_ext [31:0] $end
$var wire 5 D" extra_shift [4:0] $end
$var wire 1 E" exp_unf $end
$var wire 7 F" exp_after_rnd [6:0] $end
$var wire 6 G" eff_eb [5:0] $end
$var wire 6 H" eff_ea [5:0] $end
$var wire 5 I" eb [4:0] $end
$var wire 5 J" ea [4:0] $end
$var wire 7 K" biased_exp_s [6:0] $end
$var parameter 32 L" ACC_W $end
$upscope $end
$scope module u_fp32_add $end
$var wire 32 M" a [31:0] $end
$var wire 1 N" a_bigger $end
$var wire 1 O" a_inf $end
$var wire 1 P" a_nan $end
$var wire 1 Q" a_zero $end
$var wire 1 R" add_carry $end
$var wire 1 S" any_inf $end
$var wire 1 T" any_nan $end
$var wire 32 U" b [31:0] $end
$var wire 1 V" b_inf $end
$var wire 1 W" b_nan $end
$var wire 1 X" b_zero $end
$var wire 1 Y" both_zero $end
$var wire 1 Z" do_inc $end
$var wire 1 [" do_sub $end
$var wire 1 \" inf_same $end
$var wire 1 ]" lz1 $end
$var wire 1 ^" lz10 $end
$var wire 1 _" lz11 $end
$var wire 1 `" lz12 $end
$var wire 1 a" lz13 $end
$var wire 1 b" lz14 $end
$var wire 1 c" lz15 $end
$var wire 1 d" lz16 $end
$var wire 1 e" lz17 $end
$var wire 1 f" lz18 $end
$var wire 1 g" lz19 $end
$var wire 1 h" lz2 $end
$var wire 1 i" lz20 $end
$var wire 1 j" lz21 $end
$var wire 1 k" lz22 $end
$var wire 1 l" lz23 $end
$var wire 1 m" lz24 $end
$var wire 1 n" lz25 $end
$var wire 1 o" lz3 $end
$var wire 1 p" lz4 $end
$var wire 1 q" lz5 $end
$var wire 1 r" lz6 $end
$var wire 1 s" lz7 $end
$var wire 1 t" lz8 $end
$var wire 1 u" lz9 $end
$var wire 1 v" one_zero $end
$var wire 23 w" pack_mant [22:0] $end
$var wire 32 x" zero_res [31:0] $end
$var wire 27 y" sum_raw [26:0] $end
$var wire 26 z" sub_mant [25:0] $end
$var wire 9 {" sub_exp [8:0] $end
$var wire 1 |" sticky $end
$var wire 8 }" shift_amt [7:0] $end
$var wire 27 ~" sh9 [26:0] $end
$var wire 27 !# sh8 [26:0] $end
$var wire 27 "# sh7 [26:0] $end
$var wire 27 ## sh6 [26:0] $end
$var wire 27 $# sh5 [26:0] $end
$var wire 27 %# sh4 [26:0] $end
$var wire 27 &# sh3 [26:0] $end
$var wire 27 '# sh26 [26:0] $end
$var wire 27 (# sh25 [26:0] $end
$var wire 27 )# sh24 [26:0] $end
$var wire 27 *# sh23 [26:0] $end
$var wire 27 +# sh22 [26:0] $end
$var wire 27 ,# sh21 [26:0] $end
$var wire 27 -# sh20 [26:0] $end
$var wire 27 .# sh2 [26:0] $end
$var wire 27 /# sh19 [26:0] $end
$var wire 27 0# sh18 [26:0] $end
$var wire 27 1# sh17 [26:0] $end
$var wire 27 2# sh16 [26:0] $end
$var wire 27 3# sh15 [26:0] $end
$var wire 27 4# sh14 [26:0] $end
$var wire 27 5# sh13 [26:0] $end
$var wire 27 6# sh12 [26:0] $end
$var wire 27 7# sh11 [26:0] $end
$var wire 27 8# sh10 [26:0] $end
$var wire 27 9# sh1 [26:0] $end
$var wire 1 :# sb $end
$var wire 1 ;# sa $end
$var wire 1 <# s_sml $end
$var wire 1 =# s_big $end
$var wire 1 ># rnd_stk $end
$var wire 1 ?# rnd_ovf $end
$var wire 32 @# result [31:0] $end
$var wire 9 A# pack_exp [8:0] $end
$var wire 32 B# one_zero_res [31:0] $end
$var wire 32 C# normal_res [31:0] $end
$var wire 1 D# norm_sign $end
$var wire 26 E# norm_mant [25:0] $end
$var wire 9 F# norm_exp [8:0] $end
$var wire 32 G# nan_res [31:0] $end
$var wire 23 H# mb [22:0] $end
$var wire 23 I# mant_pre [22:0] $end
$var wire 24 J# mant_ext [23:0] $end
$var wire 23 K# ma [22:0] $end
$var wire 26 L# m_sml_sh [25:0] $end
$var wire 26 M# m_sml_final [25:0] $end
$var wire 26 N# m_sml_ext [25:0] $end
$var wire 24 O# m_sml [23:0] $end
$var wire 26 P# m_big_ext [25:0] $end
$var wire 24 Q# m_big [23:0] $end
$var wire 24 R# m_b [23:0] $end
$var wire 24 S# m_a [23:0] $end
$var wire 5 T# lz_full [4:0] $end
$var wire 1 U# lz0 $end
$var wire 32 V# inf_res [31:0] $end
$var wire 1 W# guard_bit $end
$var wire 23 X# final_mant [22:0] $end
$var wire 9 Y# final_exp [8:0] $end
$var wire 8 Z# eb [7:0] $end
$var wire 8 [# ea [7:0] $end
$var wire 9 \# e_sml [8:0] $end
$var wire 9 ]# e_big [8:0] $end
$var wire 9 ^# e_b [8:0] $end
$var wire 9 _# e_a [8:0] $end
$var wire 26 `# add_mant [25:0] $end
$var wire 9 a# add_exp [8:0] $end
$upscope $end
$upscope $end
$upscope $end
$enddefinitions $end
$comment Show the parameter values. $end
$dumpall
b100000 L"
b10000 =
b100000 <
b10000 %
b1010 $
b100000 #
$end
#0
$dumpvars
bx a#
bx `#
b0xxxxxxxx _#
b0xxxxxxxx ^#
b0xxxxxxxx ]#
b0xxxxxxxx \#
bx [#
bx Z#
bx Y#
bx X#
xW#
bx11111111x0000000000000000000000 V#
xU#
bx T#
b1xxxxxxxxxxxxxxxxxxxxxxx S#
b1xxxxxxxxxx0000000000000 R#
b1xxxxxxxxxxxxxxxxxxxxxxx Q#
b1xxxxxxxxxxxxxxxxxxxxxxx00 P#
b1xxxxxxxxxxxxxxxxxxxxxxx O#
b1xxxxxxxxxxxxxxxxxxxxxxx00 N#
bx M#
bx L#
bx K#
bx J#
bx I#
bx0000000000000 H#
bx G#
bx F#
bx E#
xD#
bx C#
bx B#
bx A#
bx @#
x?#
x>#
x=#
x<#
x;#
x:#
bx 9#
bx 8#
bx 7#
bx 6#
bx 5#
bx 4#
bx 3#
bx 2#
bx 1#
bx 0#
bx /#
bx .#
bx -#
bx ,#
bx +#
bx *#
bx )#
bx (#
bx '#
bx &#
bx %#
bx $#
bx ##
bx "#
bx !#
bx ~"
bx }"
x|"
bx {"
bx z"
bx y"
b0 x"
bx w"
xv"
xu"
xt"
xs"
xr"
xq"
xp"
xo"
xn"
xm"
xl"
xk"
xj"
xi"
xh"
xg"
xf"
xe"
xd"
xc"
xb"
xa"
x`"
x_"
x^"
x]"
x\"
x["
xZ"
xY"
xX"
xW"
xV"
bx0000000000000 U"
xT"
xS"
xR"
xQ"
xP"
xO"
xN"
bx M"
bx K"
bx J"
bx I"
b0xxxxx H"
b0xxxxx G"
bx F"
xE"
bx D"
b0xxxxxxxxxxxxxxxx C"
bx B"
xA"
x@"
x?"
bx >"
bx ="
bx <"
bx ;"
bx :"
bx 9"
bx 8"
bx 7"
bx 6"
bx 5"
x4"
bx 3"
bx 2"
bx 1"
bx 0"
bx /"
bx ."
x-"
x,"
bx +"
x*"
x)"
bx00000000000 ("
bx '"
bx &"
bx %"
x$"
bx0000000000 #"
bx00000000 ""
bx0000 !"
bx ~
bx }
x|
x{
b0xxxxxxxxxxx z
b0xxxxxxxxxxx y
xx
xw
b0xxxxxxxxxxxxxxxx v
xu
xt
xs
xr
xq
xp
xo
xn
xm
xl
xk
xj
xi
xh
xg
xf
xe
xd
xc
xb
xa
x`
x_
x^
x]
x\
x[
xZ
xY
bx X
xW
xV
xU
bx T
0S
xR
xQ
xP
bx O
bx N
bx M
bx L
xK
xJ
bx I
xH
xG
bx F
bx E
xD
xC
xB
xA
bx @
bx ?
bx >
b0xxxxxxxxxxxxxxxx ;
bx :
bx0000000000000 9
bx 8
bx 7
bx 6
bx 5
bx 4
b0 3
b0 2
b0 1
b0 0
0/
0.
0-
0,
0+
b0 *
0)
0(
b0 '
b0 &
bx "
x!
$end
#5000
b0 z"
b0 {"
b0 9#
b0 .#
b0 &#
b0 %#
b0 $#
b0 ##
b0 "#
b0 !#
b0 ~"
b0 8#
b0 7#
b0 6#
b0 5#
b0 4#
b0 3#
b0 2#
b0 1#
b0 0#
b0 /#
b0 -#
b0 ,#
b0 +#
b0 *#
b0 )#
b0 (#
b0 '#
b11010 T#
1n"
1m"
1l"
1k"
1j"
1i"
1g"
1f"
0]
1e"
1E"
1d"
b11 D"
b1011110 F"
0A"
b0 +"
1c"
b10101 3"
1@"
1{
b1011110 K"
b10110 >"
1b"
1n
1a"
1m
b0 &"
0$"
1`"
1k
0|
b0 '"
0x
1_"
1j
0)"
1^"
1i
1u"
1h
1t"
1g
b0 %"
1s"
1f
b0 8"
1r"
b0 w"
b0 X#
1e
04"
b0 }
b10 A#
1q"
0?#
1d
b0 :"
0\
b0 ~
b10 Y#
1p"
b0 J#
0Z"
1c
b0 !"
1o"
b0 I#
0W#
0>#
1b
b0 ""
1h"
b10000000000000000000000000 E#
1u
b0 #"
1R"
1]"
b10000000000000000000000000 `#
1t
b0 9"
b0 ("
1U#
1s
b100000000000000000000000000 y"
1r
1q
b10000000000000000000000000 M#
1p
b0 ."
b0 ;
b0 v
b0 C"
b0 B"
b0 8
b0 @#
b10000000000000000000000000 L#
0|"
1o
b0 /"
b10 F#
b0 }"
b10 a#
0S"
1l
b0 0"
b1000000000000000000000000 C#
0D#
0["
b1111111100000000000000000000000 V#
1N"
b1 ]#
b1 \#
1Y"
0v"
0T"
1a
b0 1"
1`
0_
0^
0=#
0<#
1\"
b1 ^#
1X"
0V"
0W"
1?"
b0 2"
0*"
0:#
b0 Z#
b100000000000000000000000 R#
b0 H#
b1 _#
1Q"
0O"
0P"
b10000000000000000000000000 P#
b100000000000000000000000 Q#
b10000000000000000000000000 N#
b100000000000000000000000 O#
b0 6"
b1 G"
1[
0Y
0Z
0w
b1 H"
1W
0U
0V
b0 9
b0 U"
0Q
0P
1R
b0 N
b0 O
0;#
b0 [#
b100000000000000000000000 S#
b0 K#
b0 G#
b0 B#
b0 5
b0 6
b0 7
0,"
b0 5"
b0 I"
b0 y
b0 ;"
b0 7"
b0 4
0-"
b0 J"
b0 z
b0 <"
b0 ="
b0 :
b0 M"
b0 L
0C
0B
0A
0D
b0 @
b0 X
b0 E
b0 T
b0 F
0H
0J
0G
0K
b0 I
0!
b0 "
b0 >
b0 M
b0 ?
1(
#10000
0(
#15000
1(
#20000
0(
#25000
1(
#30000
0(
#35000
1.
1(
#40000
0(
#45000
1(
#50000
0(
#55000
1(
#56000
1S
1)
1,
b11 0
b11 3
#60000
0S
0(
#65000
0W
b11 4
b11 z
b11 <"
b11 ="
b11 L
b11 E
b11 T
1D
1S
1(
#66000
b0 0
b0 3
0,
#70000
0S
0(
#75000
1K
1S
1(
#80000
0S
0(
#85000
1S
1(
#90000
0S
0(
#95000
1S
1(
#96000
b1 &
b1 1
#100000
0S
0(
#105000
b1 D"
b1100000 F"
b10111 3"
b1100000 K"
b10100 >"
b0 1"
0`
0m
0n
b1 2"
0[
b11 6"
b11 5
b11 6
b1 7
b11 5"
b1 y
b1 ;"
b1 7"
b1 @
b1 X
1S
1(
#110000
0S
0(
#115000
0m"
0l"
0k"
0j"
0i"
0g"
0f"
0s"
0e"
0r"
0d"
0q"
0c"
1>#
0p"
b10000000011000000000000001 z"
b1110001 {"
0b"
0o"
0a"
b110000000000000 w"
b110000000000000 X#
0h"
b0 T#
0`"
0R"
0]"
0n"
b111000100000000110000000000000 C#
0_"
b110000000000000 J#
b110000000000000 I#
0U#
b1110001 A#
0^"
b10000000011000000000000001 E#
b10000000011000000000000001 '#
b10000000011000000000000001 (#
b10000000011000000000000001 )#
b10000000011000000000000001 *#
b10000000011000000000000001 +#
b10000000011000000000000001 ,#
b10000000011000000000000001 -#
b10000000011000000000000001 /#
b10000000011000000000000001 0#
b10000000011000000000000001 1#
b10000000011000000000000001 2#
b10000000011000000000000001 3#
b10000000011000000000000001 4#
b10000000011000000000000001 5#
b10000000011000000000000001 6#
b10000000011000000000000001 7#
b1110001 Y#
0t"
0u"
b10000000011000000000000001 `#
b111000100000000110000000000000 8
b111000100000000110000000000000 @#
1|"
b1110001 F#
b1110000 }"
b1110001 a#
b10000000011000000000000001 8#
b10000000011000000000000001 ~"
b10000000011000000000000001 !#
b10000000011000000000000001 "#
b10000000011000000000000001 ##
b10000000011000000000000001 $#
b10000000011000000000000001 %#
b10000000011000000000000001 &#
b10000000011000000000000001 .#
b10000000011000000000000001 9#
b10000000011000000000000001 y"
b10000000011000000000000000 P#
b100000000110000000000000 Q#
b1110001 ]#
b1 M#
0Y"
1v"
0N"
b0 L#
b1110001 ^#
0X"
b10000000000000000000000000 N#
b100000000000000000000000 O#
b1110001 Z#
b100000000110000000000000 R#
b110000000000000 H#
b111000100000000110000000000000 G#
b111000100000000110000000000000 B#
b111000100000000110000000000000 9
b111000100000000110000000000000 U"
0R
b11 O
b11 I
1S
1(
#116000
b10 &
b10 1
#120000
0S
0(
#125000
b110 0"
b110 1"
b0 D"
b1100001 F"
b11000 3"
b1100001 K"
b10011 >"
0k
b110 2"
b110 6"
b110 5
b110 6
b10 7
b110 5"
b10 y
b10 ;"
b10 7"
b10 @
b10 X
b11 M
b11 "
b11 >
1S
1(
#126000
b11 *
#130000
0S
0(
#135000
b111000100000001100000000000000 C#
b1100000000000000 w"
b1100000000000000 X#
b1100000000000000 J#
b1100000000000000 I#
b10000000110000000000000001 E#
b10000000110000000000000001 `#
b111000100000001100000000000000 8
b111000100000001100000000000000 @#
b10000000110000000000000001 z"
b10000000110000000000000001 '#
b10000000110000000000000001 (#
b10000000110000000000000001 )#
b10000000110000000000000001 *#
b10000000110000000000000001 +#
b10000000110000000000000001 ,#
b10000000110000000000000001 -#
b10000000110000000000000001 /#
b10000000110000000000000001 0#
b10000000110000000000000001 1#
b10000000110000000000000001 2#
b10000000110000000000000001 3#
b10000000110000000000000001 4#
b10000000110000000000000001 5#
b10000000110000000000000001 6#
b10000000110000000000000001 7#
b10000000110000000000000001 8#
b10000000110000000000000001 ~"
b10000000110000000000000001 !#
b10000000110000000000000001 "#
b10000000110000000000000001 ##
b10000000110000000000000001 $#
b10000000110000000000000001 %#
b10000000110000000000000001 &#
b10000000110000000000000001 .#
b10000000110000000000000001 9#
b10000000110000000000000001 y"
b10000000110000000000000000 P#
b100000001100000000000000 Q#
b100000001100000000000000 R#
b1100000000000000 H#
b111000100000001100000000000000 G#
b111000100000001100000000000000 B#
b111000100000001100000000000000 9
b111000100000001100000000000000 U"
b110 O
b110 I
1S
1(
#136000
b11 '
b11 2
b11 &
b11 1
#140000
0S
0(
#145000
b0 /"
b11111 D"
b1100010 F"
b11001 3"
b1100010 K"
b10010 >"
0m
b100 0"
0j
0k
b100 1"
0v"
b11 B#
b100 2"
0Q"
b10000000000000000000001100 N#
b100000000000000000000011 O#
b1001 6"
b100000000000000000000011 S#
b11 K#
b1001 5
b1001 6
b11 7
b1001 5"
b11 y
b11 ;"
b11 7"
b11 :
b11 M"
b11 @
b11 X
b11 F
b110 M
b110 "
b110 >
1S
1(
#146000
b110 *
#150000
0S
0(
#155000
b111000100000010010000000000000 8
b111000100000010010000000000000 @#
b111000100000010010000000000000 C#
b10010000000000000 w"
b10010000000000000 X#
b10010000000000000 J#
b10010000000000000 I#
b10000001001000000000000001 E#
b10000001001000000000000001 `#
b10000001001000000000000001 z"
b10000001001000000000000001 '#
b10000001001000000000000001 (#
b10000001001000000000000001 )#
b10000001001000000000000001 *#
b10000001001000000000000001 +#
b10000001001000000000000001 ,#
b10000001001000000000000001 -#
b10000001001000000000000001 /#
b10000001001000000000000001 0#
b10000001001000000000000001 1#
b10000001001000000000000001 2#
b10000001001000000000000001 3#
b10000001001000000000000001 4#
b10000001001000000000000001 5#
b10000001001000000000000001 6#
b10000001001000000000000001 7#
b10000001001000000000000001 8#
b10000001001000000000000001 ~"
b10000001001000000000000001 !#
b10000001001000000000000001 "#
b10000001001000000000000001 ##
b10000001001000000000000001 $#
b10000001001000000000000001 %#
b10000001001000000000000001 &#
b10000001001000000000000001 .#
b10000001001000000000000001 9#
b10000001001000000000000001 y"
b10000001001000000000000000 P#
b100000010010000000000000 Q#
b100000010010000000000000 R#
b10010000000000000 H#
b111000100000010010000000000000 G#
b111000100000010010000000000000 9
b111000100000010010000000000000 U"
b1001 O
b1001 M
b1001 "
b1001 >
b1001 I
1S
1(
#156000
b110 '
b110 2
b100 &
b100 1
#160000
0S
0(
#165000
b110 0"
b110 1"
b110 2"
b10000000000000000000011000 N#
b100000000000000000000110 O#
b1100 6"
b100000000000000000000110 S#
b110 K#
b110 B#
b1100 5
b1100 6
b100 7
b1100 5"
b100 y
b100 ;"
b100 7"
b110 :
b110 M"
b100 @
b100 X
b110 F
b1100 M
b1100 "
b1100 >
1S
1(
#166000
b1100 *
#170000
0S
0(
#175000
b111000100000011000000000000000 8
b111000100000011000000000000000 @#
b111000100000011000000000000000 C#
b11000000000000000 w"
b11000000000000000 X#
b11000000000000000 J#
b11000000000000000 I#
b10000001100000000000000001 E#
b10000001100000000000000001 `#
b10000001100000000000000001 z"
b10000001100000000000000001 '#
b10000001100000000000000001 (#
b10000001100000000000000001 )#
b10000001100000000000000001 *#
b10000001100000000000000001 +#
b10000001100000000000000001 ,#
b10000001100000000000000001 -#
b10000001100000000000000001 /#
b10000001100000000000000001 0#
b10000001100000000000000001 1#
b10000001100000000000000001 2#
b10000001100000000000000001 3#
b10000001100000000000000001 4#
b10000001100000000000000001 5#
b10000001100000000000000001 6#
b10000001100000000000000001 7#
b10000001100000000000000001 8#
b10000001100000000000000001 ~"
b10000001100000000000000001 !#
b10000001100000000000000001 "#
b10000001100000000000000001 ##
b10000001100000000000000001 $#
b10000001100000000000000001 %#
b10000001100000000000000001 &#
b10000001100000000000000001 .#
b10000001100000000000000001 9#
b10000001100000000000000001 y"
b10000001100000000000000000 P#
b100000011000000000000000 Q#
b100000011000000000000000 R#
b11000000000000000 H#
b111000100000011000000000000000 G#
b111000100000011000000000000000 9
b111000100000011000000000000000 U"
b1100 O
b1111 M
b1111 "
b1111 >
b1100 I
1S
1(
#180000
0S
0(
#185000
b10010 M
b10010 "
b10010 >
0)
1(
#190000
0(
#195000
0D
1(
#200000
0(
#205000
0K
1(
