sim/tb_pe_top.vcd
$date
	Tue Apr 14 14:06:27 2026
$end
$version
	Icarus Verilog
$end
$timescale
	1ps
$end
$scope module tb_pe_top $end
$var wire 1 ! valid_out $end
$var wire 32 " acc_out [31:0] $end
$var parameter 32 # ACC_W $end
$var parameter 32 $ CLK_PERIOD $end
$var parameter 32 % DATA_W $end
$var reg 16 & a_in [15:0] $end
$var reg 32 ' acc_in [31:0] $end
$var reg 1 ( clk $end
$var reg 1 ) en $end
$var reg 1 * flush $end
$var reg 8 + ia [7:0] $end
$var reg 8 , iw [7:0] $end
$var reg 1 - load_w $end
$var reg 1 . mode $end
$var reg 1 / rst_n $end
$var reg 1 0 stat_mode $end
$var reg 16 1 w_in [15:0] $end
$var integer 32 2 fail_cnt [31:0] $end
$var integer 32 3 fail_idx [31:0] $end
$var integer 32 4 k [31:0] $end
$var integer 32 5 pass_cnt [31:0] $end
$scope module u_pe $end
$var wire 16 6 a_in [15:0] $end
$var wire 32 7 acc_in [31:0] $end
$var wire 16 8 active_weight [15:0] $end
$var wire 1 ( clk $end
$var wire 1 ) en $end
$var wire 1 * flush $end
$var wire 1 - load_w $end
$var wire 1 . mode $end
$var wire 1 / rst_n $end
$var wire 1 0 stat_mode $end
$var wire 1 9 swap_w $end
$var wire 16 : w_in [15:0] $end
$var wire 8 ; int8_w [7:0] $end
$var wire 32 < int8_prod [31:0] $end
$var wire 16 = int8_mul_16 [15:0] $end
$var wire 8 > int8_a [7:0] $end
$var wire 32 ? fp32_ws_ext_sum [31:0] $end
$var wire 32 @ fp32_sum [31:0] $end
$var wire 32 A fp32_b [31:0] $end
$var wire 32 B fp32_a [31:0] $end
$var wire 32 C fp16_mul_out [31:0] $end
$var parameter 32 D ACC_W $end
$var parameter 32 E DATA_W $end
$var reg 32 F acc_out [31:0] $end
$var reg 32 G os_acc [31:0] $end
$var reg 16 H s0_a [15:0] $end
$var reg 1 I s0_flush $end
$var reg 1 J s0_mode $end
$var reg 1 K s0_stat $end
$var reg 1 L s0_valid $end
$var reg 16 M s0_w [15:0] $end
$var reg 32 N s1_acc_in [31:0] $end
$var reg 1 O s1_flush $end
$var reg 1 P s1_mode $end
$var reg 32 Q s1_mul [31:0] $end
$var reg 1 R s1_stat $end
$var reg 1 S s1_valid $end
$var reg 1 ! valid_out $end
$var reg 1 T w_sel $end
$var reg 32 U ws_acc [31:0] $end
$scope function fp16_to_fp32 $end
$var reg 5 V exp16 [4:0] $end
$var reg 16 W fp16 [15:0] $end
$var reg 1 X is_inf $end
$var reg 1 Y is_nan $end
$var reg 1 Z is_zero $end
$upscope $end
$scope module u_fp16_mul $end
$var wire 1 [ _unused $end
$var wire 16 \ a [15:0] $end
$var wire 1 ] a_inf $end
$var wire 1 ^ a_nan $end
$var wire 1 _ a_zero $end
$var wire 16 ` b [15:0] $end
$var wire 1 a b_inf $end
$var wire 1 b b_nan $end
$var wire 1 c b_zero $end
$var wire 1 ( clk $end
$var wire 1 d do_inc $end
$var wire 1 ) en $end
$var wire 1 e exp_ovf $end
$var wire 1 f is_inf $end
$var wire 1 g is_nan $end
$var wire 1 h is_zero $end
$var wire 1 i lz1 $end
$var wire 1 j lz10 $end
$var wire 1 k lz11 $end
$var wire 1 l lz12 $end
$var wire 1 m lz13 $end
$var wire 1 n lz14 $end
$var wire 1 o lz15 $end
$var wire 1 p lz16 $end
$var wire 1 q lz17 $end
$var wire 1 r lz18 $end
$var wire 1 s lz19 $end
$var wire 1 t lz2 $end
$var wire 1 u lz20 $end
$var wire 1 v lz21 $end
$var wire 1 w lz3 $end
$var wire 1 x lz4 $end
$var wire 1 y lz5 $end
$var wire 1 z lz6 $end
$var wire 1 { lz7 $end
$var wire 1 | lz8 $end
$var wire 1 } lz9 $end
$var wire 32 ~ result [31:0] $end
$var wire 1 / rst_n $end
$var wire 1 !" sign_r $end
$var wire 1 "" sub_do_inc $end
$var wire 22 #" wb [21:0] $end
$var wire 22 $" wa [21:0] $end
$var wire 1 %" too_small $end
$var wire 1 &" sub_sticky $end
$var wire 22 '" sub_s5 [21:0] $end
$var wire 22 (" sub_s4 [21:0] $end
$var wire 22 )" sub_s3 [21:0] $end
$var wire 22 *" sub_s2 [21:0] $end
$var wire 22 +" sub_s1 [21:0] $end
$var wire 1 ," sub_rounds_to_normal $end
$var wire 10 -" sub_mant_raw [9:0] $end
$var wire 10 ." sub_mant_r [9:0] $end
$var wire 11 /" sub_mant_ext [10:0] $end
$var wire 22 0" sub_in [21:0] $end
$var wire 1 1" sub_guard $end
$var wire 1 2" sticky_raw $end
$var wire 22 3" sticky_mask [21:0] $end
$var wire 1 4" sb $end
$var wire 1 5" sa $end
$var wire 22 6" rs5 [21:0] $end
$var wire 22 7" rs4 [21:0] $end
$var wire 22 8" rs3 [21:0] $end
$var wire 22 9" rs2 [21:0] $end
$var wire 22 :" rs1 [21:0] $end
$var wire 5 ;" rs [4:0] $end
$var wire 1 <" rnd_ovf $end
$var wire 44 =" prod_full [43:0] $end
$var wire 22 >" prod [21:0] $end
$var wire 10 ?" mb [9:0] $end
$var wire 10 @" mant_r_raw [9:0] $end
$var wire 10 A" mant_norm [9:0] $end
$var wire 11 B" mant_ext [10:0] $end
$var wire 11 C" mant_b [10:0] $end
$var wire 11 D" mant_a [10:0] $end
$var wire 10 E" ma [9:0] $end
$var wire 5 F" lzc [4:0] $end
$var wire 1 G" lz0 $end
$var wire 1 H" is_sub $end
$var wire 1 I" guard_bit $end
$var wire 16 J" fp16_result [15:0] $end
$var wire 32 K" fp16_ext [31:0] $end
$var wire 5 L" extra_shift [4:0] $end
$var wire 1 M" exp_unf $end
$var wire 7 N" exp_after_rnd [6:0] $end
$var wire 6 O" eff_eb [5:0] $end
$var wire 6 P" eff_ea [5:0] $end
$var wire 5 Q" eb [4:0] $end
$var wire 5 R" ea [4:0] $end
$var wire 7 S" biased_exp_s [6:0] $end
$var parameter 32 T" ACC_W $end
$upscope $end
$scope module u_fp32_add $end
$var wire 32 U" a [31:0] $end
$var wire 1 V" a_bigger $end
$var wire 1 W" a_inf $end
$var wire 1 X" a_nan $end
$var wire 1 Y" a_zero $end
$var wire 1 Z" add_carry $end
$var wire 1 [" any_inf $end
$var wire 1 \" any_nan $end
$var wire 32 ]" b [31:0] $end
$var wire 1 ^" b_inf $end
$var wire 1 _" b_nan $end
$var wire 1 `" b_zero $end
$var wire 1 a" both_zero $end
$var wire 1 b" do_inc $end
$var wire 1 c" do_sub $end
$var wire 1 d" inf_same $end
$var wire 1 e" lz1 $end
$var wire 1 f" lz10 $end
$var wire 1 g" lz11 $end
$var wire 1 h" lz12 $end
$var wire 1 i" lz13 $end
$var wire 1 j" lz14 $end
$var wire 1 k" lz15 $end
$var wire 1 l" lz16 $end
$var wire 1 m" lz17 $end
$var wire 1 n" lz18 $end
$var wire 1 o" lz19 $end
$var wire 1 p" lz2 $end
$var wire 1 q" lz20 $end
$var wire 1 r" lz21 $end
$var wire 1 s" lz22 $end
$var wire 1 t" lz23 $end
$var wire 1 u" lz24 $end
$var wire 1 v" lz25 $end
$var wire 1 w" lz3 $end
$var wire 1 x" lz4 $end
$var wire 1 y" lz5 $end
$var wire 1 z" lz6 $end
$var wire 1 {" lz7 $end
$var wire 1 |" lz8 $end
$var wire 1 }" lz9 $end
$var wire 1 ~" one_zero $end
$var wire 23 !# pack_mant [22:0] $end
$var wire 32 "# zero_res [31:0] $end
$var wire 27 ## sum_raw [26:0] $end
$var wire 26 $# sub_mant [25:0] $end
$var wire 9 %# sub_exp [8:0] $end
$var wire 1 &# sticky $end
$var wire 8 '# shift_amt [7:0] $end
$var wire 27 (# sh9 [26:0] $end
$var wire 27 )# sh8 [26:0] $end
$var wire 27 *# sh7 [26:0] $end
$var wire 27 +# sh6 [26:0] $end
$var wire 27 ,# sh5 [26:0] $end
$var wire 27 -# sh4 [26:0] $end
$var wire 27 .# sh3 [26:0] $end
$var wire 27 /# sh26 [26:0] $end
$var wire 27 0# sh25 [26:0] $end
$var wire 27 1# sh24 [26:0] $end
$var wire 27 2# sh23 [26:0] $end
$var wire 27 3# sh22 [26:0] $end
$var wire 27 4# sh21 [26:0] $end
$var wire 27 5# sh20 [26:0] $end
$var wire 27 6# sh2 [26:0] $end
$var wire 27 7# sh19 [26:0] $end
$var wire 27 8# sh18 [26:0] $end
$var wire 27 9# sh17 [26:0] $end
$var wire 27 :# sh16 [26:0] $end
$var wire 27 ;# sh15 [26:0] $end
$var wire 27 <# sh14 [26:0] $end
$var wire 27 =# sh13 [26:0] $end
$var wire 27 ># sh12 [26:0] $end
$var wire 27 ?# sh11 [26:0] $end
$var wire 27 @# sh10 [26:0] $end
$var wire 27 A# sh1 [26:0] $end
$var wire 1 B# sb $end
$var wire 1 C# sa $end
$var wire 1 D# s_sml $end
$var wire 1 E# s_big $end
$var wire 1 F# rnd_stk $end
$var wire 1 G# rnd_ovf $end
$var wire 32 H# result [31:0] $end
$var wire 9 I# pack_exp [8:0] $end
$var wire 32 J# one_zero_res [31:0] $end
$var wire 32 K# normal_res [31:0] $end
$var wire 1 L# norm_sign $end
$var wire 26 M# norm_mant [25:0] $end
$var wire 9 N# norm_exp [8:0] $end
$var wire 32 O# nan_res [31:0] $end
$var wire 23 P# mb [22:0] $end
$var wire 23 Q# mant_pre [22:0] $end
$var wire 24 R# mant_ext [23:0] $end
$var wire 23 S# ma [22:0] $end
$var wire 26 T# m_sml_sh [25:0] $end
$var wire 26 U# m_sml_final [25:0] $end
$var wire 26 V# m_sml_ext [25:0] $end
$var wire 24 W# m_sml [23:0] $end
$var wire 26 X# m_big_ext [25:0] $end
$var wire 24 Y# m_big [23:0] $end
$var wire 24 Z# m_b [23:0] $end
$var wire 24 [# m_a [23:0] $end
$var wire 5 \# lz_full [4:0] $end
$var wire 1 ]# lz0 $end
$var wire 32 ^# inf_res [31:0] $end
$var wire 1 _# guard_bit $end
$var wire 23 `# final_mant [22:0] $end
$var wire 9 a# final_exp [8:0] $end
$var wire 8 b# eb [7:0] $end
$var wire 8 c# ea [7:0] $end
$var wire 9 d# e_sml [8:0] $end
$var wire 9 e# e_big [8:0] $end
$var wire 9 f# e_b [8:0] $end
$var wire 9 g# e_a [8:0] $end
$var wire 26 h# add_mant [25:0] $end
$var wire 9 i# add_exp [8:0] $end
$upscope $end
$scope module u_fp32_add_ws_ext $end
$var wire 32 j# a [31:0] $end
$var wire 1 k# a_bigger $end
$var wire 1 l# a_inf $end
$var wire 1 m# a_nan $end
$var wire 1 n# a_zero $end
$var wire 1 o# add_carry $end
$var wire 1 p# any_inf $end
$var wire 1 q# any_nan $end
$var wire 32 r# b [31:0] $end
$var wire 1 s# b_inf $end
$var wire 1 t# b_nan $end
$var wire 1 u# b_zero $end
$var wire 1 v# both_zero $end
$var wire 1 w# do_inc $end
$var wire 1 x# do_sub $end
$var wire 1 y# inf_same $end
$var wire 1 z# lz1 $end
$var wire 1 {# lz10 $end
$var wire 1 |# lz11 $end
$var wire 1 }# lz12 $end
$var wire 1 ~# lz13 $end
$var wire 1 !$ lz14 $end
$var wire 1 "$ lz15 $end
$var wire 1 #$ lz16 $end
$var wire 1 $$ lz17 $end
$var wire 1 %$ lz18 $end
$var wire 1 &$ lz19 $end
$var wire 1 '$ lz2 $end
$var wire 1 ($ lz20 $end
$var wire 1 )$ lz21 $end
$var wire 1 *$ lz22 $end
$var wire 1 +$ lz23 $end
$var wire 1 ,$ lz24 $end
$var wire 1 -$ lz25 $end
$var wire 1 .$ lz3 $end
$var wire 1 /$ lz4 $end
$var wire 1 0$ lz5 $end
$var wire 1 1$ lz6 $end
$var wire 1 2$ lz7 $end
$var wire 1 3$ lz8 $end
$var wire 1 4$ lz9 $end
$var wire 1 5$ one_zero $end
$var wire 23 6$ pack_mant [22:0] $end
$var wire 32 7$ zero_res [31:0] $end
$var wire 27 8$ sum_raw [26:0] $end
$var wire 26 9$ sub_mant [25:0] $end
$var wire 9 :$ sub_exp [8:0] $end
$var wire 1 ;$ sticky $end
$var wire 8 <$ shift_amt [7:0] $end
$var wire 27 =$ sh9 [26:0] $end
$var wire 27 >$ sh8 [26:0] $end
$var wire 27 ?$ sh7 [26:0] $end
$var wire 27 @$ sh6 [26:0] $end
$var wire 27 A$ sh5 [26:0] $end
$var wire 27 B$ sh4 [26:0] $end
$var wire 27 C$ sh3 [26:0] $end
$var wire 27 D$ sh26 [26:0] $end
$var wire 27 E$ sh25 [26:0] $end
$var wire 27 F$ sh24 [26:0] $end
$var wire 27 G$ sh23 [26:0] $end
$var wire 27 H$ sh22 [26:0] $end
$var wire 27 I$ sh21 [26:0] $end
$var wire 27 J$ sh20 [26:0] $end
$var wire 27 K$ sh2 [26:0] $end
$var wire 27 L$ sh19 [26:0] $end
$var wire 27 M$ sh18 [26:0] $end
$var wire 27 N$ sh17 [26:0] $end
$var wire 27 O$ sh16 [26:0] $end
$var wire 27 P$ sh15 [26:0] $end
$var wire 27 Q$ sh14 [26:0] $end
$var wire 27 R$ sh13 [26:0] $end
$var wire 27 S$ sh12 [26:0] $end
$var wire 27 T$ sh11 [26:0] $end
$var wire 27 U$ sh10 [26:0] $end
$var wire 27 V$ sh1 [26:0] $end
$var wire 1 W$ sb $end
$var wire 1 X$ sa $end
$var wire 1 Y$ s_sml $end
$var wire 1 Z$ s_big $end
$var wire 1 [$ rnd_stk $end
$var wire 1 \$ rnd_ovf $end
$var wire 32 ]$ result [31:0] $end
$var wire 9 ^$ pack_exp [8:0] $end
$var wire 32 _$ one_zero_res [31:0] $end
$var wire 32 `$ normal_res [31:0] $end
$var wire 1 a$ norm_sign $end
$var wire 26 b$ norm_mant [25:0] $end
$var wire 9 c$ norm_exp [8:0] $end
$var wire 32 d$ nan_res [31:0] $end
$var wire 23 e$ mb [22:0] $end
$var wire 23 f$ mant_pre [22:0] $end
$var wire 24 g$ mant_ext [23:0] $end
$var wire 23 h$ ma [22:0] $end
$var wire 26 i$ m_sml_sh [25:0] $end
$var wire 26 j$ m_sml_final [25:0] $end
$var wire 26 k$ m_sml_ext [25:0] $end
$var wire 24 l$ m_sml [23:0] $end
$var wire 26 m$ m_big_ext [25:0] $end
$var wire 24 n$ m_big [23:0] $end
$var wire 24 o$ m_b [23:0] $end
$var wire 24 p$ m_a [23:0] $end
$var wire 5 q$ lz_full [4:0] $end
$var wire 1 r$ lz0 $end
$var wire 32 s$ inf_res [31:0] $end
$var wire 1 t$ guard_bit $end
$var wire 23 u$ final_mant [22:0] $end
$var wire 9 v$ final_exp [8:0] $end
$var wire 8 w$ eb [7:0] $end
$var wire 8 x$ ea [7:0] $end
$var wire 9 y$ e_sml [8:0] $end
$var wire 9 z$ e_big [8:0] $end
$var wire 9 {$ e_b [8:0] $end
$var wire 9 |$ e_a [8:0] $end
$var wire 26 }$ add_mant [25:0] $end
$var wire 9 ~$ add_exp [8:0] $end
$upscope $end
$upscope $end
$scope task check_result $end
$var reg 32 !% exp [31:0] $end
$var reg 32 "% got [31:0] $end
$var integer 32 #% test_id [31:0] $end
$upscope $end
$scope task drive_beat $end
$var reg 16 $% a [15:0] $end
$var reg 32 %% acc [31:0] $end
$var reg 1 &% fl $end
$var reg 16 '% w [15:0] $end
$upscope $end
$scope task drive_ws_beat $end
$var reg 16 (% a [15:0] $end
$var reg 32 )% acc [31:0] $end
$upscope $end
$scope task reset_dut $end
$upscope $end
$upscope $end
$enddefinitions $end
$comment Show the parameter values. $end
$dumpall
b100000 T"
b10000 E
b100000 D
b10000 %
b1010 $
b100000 #
$end
#0
$dumpvars
bx )%
bx (%
bx '%
x&%
bx %%
bx $%
bx #%
bx "%
bx !%
bx ~$
bx }$
b0xxxxxxxx |$
b0xxxxxxxx {$
b0xxxxxxxx z$
b0xxxxxxxx y$
bx x$
bx w$
bx v$
bx u$
xt$
bx11111111x0000000000000000000000 s$
xr$
bx q$
b1xxxxxxxxxxxxxxxxxxxxxxx p$
b1xxxxxxxxxx0000000000000 o$
b1xxxxxxxxxxxxxxxxxxxxxxx n$
b1xxxxxxxxxxxxxxxxxxxxxxx00 m$
b1xxxxxxxxxxxxxxxxxxxxxxx l$
b1xxxxxxxxxxxxxxxxxxxxxxx00 k$
bx j$
bx i$
bx h$
bx g$
bx f$
bx0000000000000 e$
bx d$
bx c$
bx b$
xa$
bx `$
bx _$
bx ^$
bx ]$
x\$
x[$
xZ$
xY$
xX$
xW$
bx V$
bx U$
bx T$
bx S$
bx R$
bx Q$
bx P$
bx O$
bx N$
bx M$
bx L$
bx K$
bx J$
bx I$
bx H$
bx G$
bx F$
bx E$
bx D$
bx C$
bx B$
bx A$
bx @$
bx ?$
bx >$
bx =$
bx <$
x;$
bx :$
bx 9$
bx 8$
b0 7$
bx 6$
x5$
x4$
x3$
x2$
x1$
x0$
x/$
x.$
x-$
x,$
x+$
x*$
x)$
x($
x'$
x&$
x%$
x$$
x#$
x"$
x!$
x~#
x}#
x|#
x{#
xz#
xy#
xx#
xw#
xv#
xu#
xt#
xs#
bx0000000000000 r#
xq#
xp#
xo#
xn#
xm#
xl#
xk#
bx j#
bx i#
bx h#
b0xxxxxxxx g#
b0xxxxxxxx f#
b0xxxxxxxx e#
b0xxxxxxxx d#
bx c#
bx b#
bx a#
bx `#
x_#
bx11111111x0000000000000000000000 ^#
x]#
bx \#
b1xxxxxxxxxxxxxxxxxxxxxxx [#
b1xxxxxxxxxx0000000000000 Z#
b1xxxxxxxxxxxxxxxxxxxxxxx Y#
b1xxxxxxxxxxxxxxxxxxxxxxx00 X#
b1xxxxxxxxxxxxxxxxxxxxxxx W#
b1xxxxxxxxxxxxxxxxxxxxxxx00 V#
bx U#
bx T#
bx S#
bx R#
bx Q#
bx0000000000000 P#
bx O#
bx N#
bx M#
xL#
bx K#
bx J#
bx I#
bx H#
xG#
xF#
xE#
xD#
xC#
xB#
bx A#
bx @#
bx ?#
bx >#
bx =#
bx <#
bx ;#
bx :#
bx 9#
bx 8#
bx 7#
bx 6#
bx 5#
bx 4#
bx 3#
bx 2#
bx 1#
bx 0#
bx /#
bx .#
bx -#
bx ,#
bx +#
bx *#
bx )#
bx (#
bx '#
x&#
bx %#
bx $#
bx ##
b0 "#
bx !#
x~"
x}"
x|"
x{"
xz"
xy"
xx"
xw"
xv"
xu"
xt"
xs"
xr"
xq"
xp"
xo"
xn"
xm"
xl"
xk"
xj"
xi"
xh"
xg"
xf"
xe"
xd"
xc"
xb"
xa"
x`"
x_"
x^"
bx0000000000000 ]"
x\"
x["
xZ"
xY"
xX"
xW"
xV"
bx U"
bx S"
bx R"
bx Q"
b0xxxxx P"
b0xxxxx O"
bx N"
xM"
bx L"
b0xxxxxxxxxxxxxxxx K"
bx J"
xI"
xH"
xG"
bx F"
bx E"
bx D"
bx C"
bx B"
bx A"
bx @"
bx ?"
bx >"
bx ="
x<"
bx ;"
bx :"
bx 9"
bx 8"
bx 7"
bx 6"
x5"
x4"
bx 3"
x2"
x1"
bx00000000000 0"
bx /"
bx ."
bx -"
x,"
bx0000000000 +"
bx00000000 *"
bx0000 )"
bx ("
bx '"
x&"
x%"
b0xxxxxxxxxxx $"
b0xxxxxxxxxxx #"
x""
x!"
b0xxxxxxxxxxxxxxxx ~
x}
x|
x{
xz
xy
xx
xw
xv
xu
xt
xs
xr
xq
xp
xo
xn
xm
xl
xk
xj
xi
xh
xg
xf
xe
xd
xc
xb
xa
bx `
x_
x^
x]
bx \
0[
xZ
xY
xX
bx W
bx V
bx U
xT
xS
xR
bx Q
xP
xO
bx N
bx M
xL
xK
xJ
xI
bx H
bx G
bx F
b0xxxxxxxxxxxxxxxx C
bx B
bx0000000000000 A
bx @
bx ?
bx >
bx =
bx <
bx ;
b0 :
z9
bx 8
b0 7
b0 6
b0 5
bx 4
b0 3
b0 2
b0 1
00
0/
0.
0-
bx ,
bx +
0*
0)
0(
b0 '
b0 &
bx "
x!
$end
#5000
b0 $#
b0 %#
b0 9$
b0 :$
b0 A#
b0 6#
b0 .#
b0 -#
b0 ,#
b0 +#
b0 *#
b0 )#
b0 (#
b0 @#
b0 ?#
b0 >#
b0 =#
b0 <#
b0 ;#
b0 :#
b0 9#
b0 8#
b0 7#
b0 5#
b0 4#
b0 3#
b0 2#
b0 1#
b0 0#
b0 /#
b0 V$
b0 K$
b0 C$
b0 B$
b0 A$
b0 @$
b0 ?$
b0 >$
b0 =$
b0 U$
b0 T$
b0 S$
b0 R$
b0 Q$
b0 P$
b0 O$
b0 N$
b0 M$
b0 L$
b0 J$
b0 I$
b0 H$
b0 G$
b0 F$
b0 E$
b0 D$
b11010 \#
b11010 q$
1v"
1-$
1u"
1,$
1t"
1+$
1s"
1*$
1r"
1)$
1q"
1($
1o"
1&$
1n"
1%$
0e
1m"
1$$
1M"
1l"
1#$
b11 L"
b1011110 N"
0I"
b0 3"
1k"
1"$
b10101 ;"
1H"
1%"
b1011110 S"
b10110 F"
1j"
1!$
1v
1i"
1~#
1u
b0 ."
0,"
1h"
1}#
1s
0&"
b0 /"
0""
1g"
1|#
1r
01"
1f"
1{#
1q
1}"
14$
1p
1|"
13$
1o
b0 -"
1{"
12$
1n
b0 @"
1z"
b0 !#
b0 `#
11$
b0 6$
b0 u$
1m
0<"
b0 '"
b10 I#
1y"
0G#
b10 ^$
10$
0\$
1l
b0 B"
0d
b0 ("
b10 a#
1x"
b0 R#
0b"
b10 v$
1/$
b0 g$
0w#
1k
b0 )"
1w"
b0 Q#
0_#
0F#
1.$
b0 f$
0t$
0[$
1j
b0 *"
1p"
b10000000000000000000000000 M#
1'$
b10000000000000000000000000 b$
1}
b0 +"
1Z"
1e"
b10000000000000000000000000 h#
1o#
1z#
b10000000000000000000000000 }$
1|
b0 A"
b0 0"
1]#
1r$
1{
b100000000000000000000000000 ##
b100000000000000000000000000 8$
1z
1y
b10000000000000000000000000 U#
b10000000000000000000000000 j$
1x
b0 6"
b0 C
b0 ~
b0 K"
b0 J"
b0 @
b0 H#
b10000000000000000000000000 T#
0&#
b0 ?
b0 ]$
b10000000000000000000000000 i$
0;$
1w
b0 7"
b10 N#
b0 '#
b10 i#
0["
b10 c$
b0 <$
b10 ~$
0p#
1t
b0 8"
b1000000000000000000000000 K#
0L#
0c"
b1111111100000000000000000000000 ^#
1V"
b1 e#
b1 d#
1a"
0~"
0\"
b1000000000000000000000000 `$
0a$
0x#
b1111111100000000000000000000000 s$
1k#
b1 z$
b1 y$
1v#
05$
0q#
1i
b0 9"
1h
0g
0f
0E#
0D#
1d"
b1 f#
1`"
0^"
0_"
0Z$
0Y$
1y#
b1 {$
1u#
0s#
0t#
1G"
b0 :"
02"
0B#
b0 b#
b100000000000000000000000 Z#
b0 P#
0W$
b0 w$
b100000000000000000000000 o$
b0 e$
b1 g#
1Y"
0W"
0X"
b10000000000000000000000000 X#
b100000000000000000000000 Y#
b10000000000000000000000000 V#
b100000000000000000000000 W#
b0 >"
b1 O"
1c
0a
0b
0!"
b1 P"
1_
0]
0^
b1 |$
1n#
0l#
0m#
b10000000000000000000000000 m$
b100000000000000000000000 n$
b10000000000000000000000000 k$
b100000000000000000000000 l$
b0 A
b0 ]"
b0 r#
0Y
0X
1Z
b0 V
b0 W
0C#
b0 c#
b100000000000000000000000 [#
b0 S#
b0 O#
b0 J#
b0 <
b0 =
b0 >
04"
b0 ="
b0 Q"
b0 #"
b0 C"
b0 ?"
b0 ;
05"
b0 R"
b0 $"
b0 D"
b0 E"
0X$
b0 x$
b100000000000000000000000 p$
b0 h$
b0 d$
b0 _$
b0 B
b0 U"
b0 8
0T
0K
0J
0I
0L
b0 H
b0 `
b0 M
b0 \
b0 N
b0 j#
0P
0R
0O
0S
b0 Q
0!
b0 "
b0 F
b0 U
b0 G
1(
#10000
0(
#15000
1(
#20000
0(
#25000
1(
#30000
0(
#35000
1/
1(
#40000
0(
#45000
b11 ,
1(
#50000
0(
#55000
1(
#56000
1[
1)
1-
b1 &
b1 6
b11 1
b11 :
#60000
0[
0(
#65000
b1 L"
b1100000 N"
b10111 ;"
b1100000 S"
b10100 F"
b0 9"
0u
0v
b1 :"
0h
0c
b11 >"
0_
b11 <
b11 =
b1 >
b11 ="
b1 #"
b1 C"
b1 ?"
b11 ;
b11 $"
b11 D"
b11 E"
b11 8
b1 H
b1 `
b11 M
b11 \
1L
1[
1(
#66000
0[
b0 )%
b10 (%
0-
0)
#70000
0(
#75000
0u"
0,$
0t"
0+$
0s"
0*$
0r"
0)$
0q"
0($
0o"
0&$
0n"
0%$
0{"
0m"
02$
0$$
0z"
0l"
01$
0#$
0y"
0k"
00$
0"$
1F#
0x"
b10000000011000000000000001 $#
b1110001 %#
0j"
1[$
0/$
b10000000011000000000000001 9$
b1110001 :$
0!$
0w"
0i"
b110000000000000 !#
b110000000000000 `#
0.$
0~#
b110000000000000 6$
b110000000000000 u$
0p"
b0 \#
0h"
0'$
b0 q$
0}#
0Z"
0e"
0v"
b111000100000000110000000000000 K#
0g"
b110000000000000 R#
b110000000000000 Q#
0o#
0z#
0-$
b111000100000000110000000000000 `$
0|#
b110000000000000 g$
b110000000000000 f$
0]#
b1110001 I#
0f"
b10000000011000000000000001 M#
0r$
b1110001 ^$
0{#
b10000000011000000000000001 b$
b10000000011000000000000001 /#
b10000000011000000000000001 0#
b10000000011000000000000001 1#
b10000000011000000000000001 2#
b10000000011000000000000001 3#
b10000000011000000000000001 4#
b10000000011000000000000001 5#
b10000000011000000000000001 7#
b10000000011000000000000001 8#
b10000000011000000000000001 9#
b10000000011000000000000001 :#
b10000000011000000000000001 ;#
b10000000011000000000000001 <#
b10000000011000000000000001 =#
b10000000011000000000000001 >#
b10000000011000000000000001 ?#
b1110001 a#
0|"
0}"
b10000000011000000000000001 h#
b10000000011000000000000001 D$
b10000000011000000000000001 E$
b10000000011000000000000001 F$
b10000000011000000000000001 G$
b10000000011000000000000001 H$
b10000000011000000000000001 I$
b10000000011000000000000001 J$
b10000000011000000000000001 L$
b10000000011000000000000001 M$
b10000000011000000000000001 N$
b10000000011000000000000001 O$
b10000000011000000000000001 P$
b10000000011000000000000001 Q$
b10000000011000000000000001 R$
b10000000011000000000000001 S$
b10000000011000000000000001 T$
b1110001 v$
03$
04$
b10000000011000000000000001 }$
b111000100000000110000000000000 @
b111000100000000110000000000000 H#
1&#
b1110001 N#
b111000100000000110000000000000 ?
b111000100000000110000000000000 ]$
1;$
b1110001 c$
b1110000 '#
b1110001 i#
b10000000011000000000000001 @#
b10000000011000000000000001 (#
b10000000011000000000000001 )#
b10000000011000000000000001 *#
b10000000011000000000000001 +#
b10000000011000000000000001 ,#
b10000000011000000000000001 -#
b10000000011000000000000001 .#
b10000000011000000000000001 6#
b10000000011000000000000001 A#
b10000000011000000000000001 ##
b1110000 <$
b1110001 ~$
b10000000011000000000000001 U$
b10000000011000000000000001 =$
b10000000011000000000000001 >$
b10000000011000000000000001 ?$
b10000000011000000000000001 @$
b10000000011000000000000001 A$
b10000000011000000000000001 B$
b10000000011000000000000001 C$
b10000000011000000000000001 K$
b10000000011000000000000001 V$
b10000000011000000000000001 8$
b10000000011000000000000000 X#
b100000000110000000000000 Y#
b1110001 e#
b1 U#
b10000000011000000000000000 m$
b100000000110000000000000 n$
b1110001 z$
b1 j$
0a"
1~"
0V"
b0 T#
0v#
15$
0k#
b0 i$
b1110001 f#
0`"
b10000000000000000000000000 V#
b100000000000000000000000 W#
b1110001 {$
0u#
b10000000000000000000000000 k$
b100000000000000000000000 l$
b1110001 b#
b100000000110000000000000 Z#
b110000000000000 P#
b111000100000000110000000000000 O#
b111000100000000110000000000000 J#
b1110001 w$
b100000000110000000000000 o$
b110000000000000 e$
b111000100000000110000000000000 d$
b111000100000000110000000000000 _$
b111000100000000110000000000000 A
b111000100000000110000000000000 ]"
b111000100000000110000000000000 r#
0Z
b11 W
b11 Q
1S
0L
1(
#76000
1[
1)
b10 &
b10 6
b0 1
b0 :
#80000
0[
0(
#85000
b110 8"
b110 9"
b0 L"
b1100001 N"
b11000 ;"
b1100001 S"
b10011 F"
0s
b110 :"
0~"
b11 J#
0Y"
b10000000000000000000001100 V#
b100000000000000000000011 W#
b110 >"
b100000000000000000000011 [#
b11 S#
b110 <
b110 =
b10 >
b110 ="
b10 #"
b10 C"
b10 ?"
b11 B
b11 U"
b10 H
b10 `
1L
0S
b11 U
1[
1(
#86000
0[
b11 (%
0)
#90000
0(
