sim/wave/tb_pe_top.vcd
$date
	Fri Apr 10 09:09:33 2026
$end
$version
	Icarus Verilog
$end
$timescale
	1ps
$end
$scope module tb_pe_top $end
$var wire 1 ! valid_out $end
$var wire 32 " acc_out [31:0] $end
$var parameter 32 # ACC_W $end
$var parameter 32 $ CLK_PERIOD $end
$var parameter 32 % DATA_W $end
$var reg 16 & a_in [15:0] $end
$var reg 32 ' acc_in [31:0] $end
$var reg 1 ( clk $end
$var reg 1 ) en $end
$var reg 1 * flush $end
$var reg 8 + ia [7:0] $end
$var reg 8 , iw [7:0] $end
$var reg 1 - load_w $end
$var reg 1 . mode $end
$var reg 1 / rst_n $end
$var reg 1 0 stat_mode $end
$var reg 16 1 w_in [15:0] $end
$var integer 32 2 fail_cnt [31:0] $end
$var integer 32 3 fail_idx [31:0] $end
$var integer 32 4 k [31:0] $end
$var integer 32 5 pass_cnt [31:0] $end
$scope module u_pe $end
$var wire 16 6 a_in [15:0] $end
$var wire 32 7 acc_in [31:0] $end
$var wire 1 ( clk $end
$var wire 1 ) en $end
$var wire 1 * flush $end
$var wire 1 - load_w $end
$var wire 1 . mode $end
$var wire 1 / rst_n $end
$var wire 1 0 stat_mode $end
$var wire 16 8 w_in [15:0] $end
$var wire 8 9 int8_w [7:0] $end
$var wire 32 : int8_prod [31:0] $end
$var wire 16 ; int8_mul_16 [15:0] $end
$var wire 8 < int8_a [7:0] $end
$var wire 32 = fp32_ws_ext_sum [31:0] $end
$var wire 32 > fp32_sum [31:0] $end
$var wire 32 ? fp32_b [31:0] $end
$var wire 32 @ fp32_a [31:0] $end
$var wire 32 A fp16_mul_out [31:0] $end
$var parameter 32 B ACC_W $end
$var parameter 32 C DATA_W $end
$var reg 32 D acc_out [31:0] $end
$var reg 32 E os_acc [31:0] $end
$var reg 16 F s0_a [15:0] $end
$var reg 1 G s0_flush $end
$var reg 1 H s0_mode $end
$var reg 1 I s0_stat $end
$var reg 1 J s0_valid $end
$var reg 16 K s0_w [15:0] $end
$var reg 32 L s1_acc_in [31:0] $end
$var reg 1 M s1_flush $end
$var reg 1 N s1_mode $end
$var reg 32 O s1_mul [31:0] $end
$var reg 1 P s1_stat $end
$var reg 1 Q s1_valid $end
$var reg 1 ! valid_out $end
$var reg 16 R weight_reg [15:0] $end
$var reg 32 S ws_acc [31:0] $end
$scope function fp16_to_fp32 $end
$var reg 5 T exp16 [4:0] $end
$var reg 16 U fp16 [15:0] $end
$var reg 1 V is_inf $end
$var reg 1 W is_nan $end
$var reg 1 X is_zero $end
$upscope $end
$scope module u_fp16_mul $end
$var wire 1 Y _unused $end
$var wire 16 Z a [15:0] $end
$var wire 1 [ a_inf $end
$var wire 1 \ a_nan $end
$var wire 1 ] a_zero $end
$var wire 16 ^ b [15:0] $end
$var wire 1 _ b_inf $end
$var wire 1 ` b_nan $end
$var wire 1 a b_zero $end
$var wire 1 ( clk $end
$var wire 1 b do_inc $end
$var wire 1 ) en $end
$var wire 1 c exp_ovf $end
$var wire 1 d is_inf $end
$var wire 1 e is_nan $end
$var wire 1 f is_zero $end
$var wire 1 g lz1 $end
$var wire 1 h lz10 $end
$var wire 1 i lz11 $end
$var wire 1 j lz12 $end
$var wire 1 k lz13 $end
$var wire 1 l lz14 $end
$var wire 1 m lz15 $end
$var wire 1 n lz16 $end
$var wire 1 o lz17 $end
$var wire 1 p lz18 $end
$var wire 1 q lz19 $end
$var wire 1 r lz2 $end
$var wire 1 s lz20 $end
$var wire 1 t lz21 $end
$var wire 1 u lz3 $end
$var wire 1 v lz4 $end
$var wire 1 w lz5 $end
$var wire 1 x lz6 $end
$var wire 1 y lz7 $end
$var wire 1 z lz8 $end
$var wire 1 { lz9 $end
$var wire 32 | result [31:0] $end
$var wire 1 / rst_n $end
$var wire 1 } sign_r $end
$var wire 1 ~ sub_do_inc $end
$var wire 22 !" wb [21:0] $end
$var wire 22 "" wa [21:0] $end
$var wire 1 #" too_small $end
$var wire 1 $" sub_sticky $end
$var wire 22 %" sub_s5 [21:0] $end
$var wire 22 &" sub_s4 [21:0] $end
$var wire 22 '" sub_s3 [21:0] $end
$var wire 22 (" sub_s2 [21:0] $end
$var wire 22 )" sub_s1 [21:0] $end
$var wire 1 *" sub_rounds_to_normal $end
$var wire 10 +" sub_mant_raw [9:0] $end
$var wire 10 ," sub_mant_r [9:0] $end
$var wire 11 -" sub_mant_ext [10:0] $end
$var wire 22 ." sub_in [21:0] $end
$var wire 1 /" sub_guard $end
$var wire 1 0" sticky_raw $end
$var wire 22 1" sticky_mask [21:0] $end
$var wire 1 2" sb $end
$var wire 1 3" sa $end
$var wire 22 4" rs5 [21:0] $end
$var wire 22 5" rs4 [21:0] $end
$var wire 22 6" rs3 [21:0] $end
$var wire 22 7" rs2 [21:0] $end
$var wire 22 8" rs1 [21:0] $end
$var wire 5 9" rs [4:0] $end
$var wire 1 :" rnd_ovf $end
$var wire 44 ;" prod_full [43:0] $end
$var wire 22 <" prod [21:0] $end
$var wire 10 =" mb [9:0] $end
$var wire 10 >" mant_r_raw [9:0] $end
$var wire 10 ?" mant_norm [9:0] $end
$var wire 11 @" mant_ext [10:0] $end
$var wire 11 A" mant_b [10:0] $end
$var wire 11 B" mant_a [10:0] $end
$var wire 10 C" ma [9:0] $end
$var wire 5 D" lzc [4:0] $end
$var wire 1 E" lz0 $end
$var wire 1 F" is_sub $end
$var wire 1 G" guard_bit $end
$var wire 16 H" fp16_result [15:0] $end
$var wire 32 I" fp16_ext [31:0] $end
$var wire 5 J" extra_shift [4:0] $end
$var wire 1 K" exp_unf $end
$var wire 7 L" exp_after_rnd [6:0] $end
$var wire 6 M" eff_eb [5:0] $end
$var wire 6 N" eff_ea [5:0] $end
$var wire 5 O" eb [4:0] $end
$var wire 5 P" ea [4:0] $end
$var wire 7 Q" biased_exp_s [6:0] $end
$var parameter 32 R" ACC_W $end
$upscope $end
$scope module u_fp32_add $end
$var wire 32 S" a [31:0] $end
$var wire 1 T" a_bigger $end
$var wire 1 U" a_inf $end
$var wire 1 V" a_nan $end
$var wire 1 W" a_zero $end
$var wire 1 X" add_carry $end
$var wire 1 Y" any_inf $end
$var wire 1 Z" any_nan $end
$var wire 32 [" b [31:0] $end
$var wire 1 \" b_inf $end
$var wire 1 ]" b_nan $end
$var wire 1 ^" b_zero $end
$var wire 1 _" both_zero $end
$var wire 1 `" do_inc $end
$var wire 1 a" do_sub $end
$var wire 1 b" inf_same $end
$var wire 1 c" lz1 $end
$var wire 1 d" lz10 $end
$var wire 1 e" lz11 $end
$var wire 1 f" lz12 $end
$var wire 1 g" lz13 $end
$var wire 1 h" lz14 $end
$var wire 1 i" lz15 $end
$var wire 1 j" lz16 $end
$var wire 1 k" lz17 $end
$var wire 1 l" lz18 $end
$var wire 1 m" lz19 $end
$var wire 1 n" lz2 $end
$var wire 1 o" lz20 $end
$var wire 1 p" lz21 $end
$var wire 1 q" lz22 $end
$var wire 1 r" lz23 $end
$var wire 1 s" lz24 $end
$var wire 1 t" lz25 $end
$var wire 1 u" lz3 $end
$var wire 1 v" lz4 $end
$var wire 1 w" lz5 $end
$var wire 1 x" lz6 $end
$var wire 1 y" lz7 $end
$var wire 1 z" lz8 $end
$var wire 1 {" lz9 $end
$var wire 1 |" one_zero $end
$var wire 23 }" pack_mant [22:0] $end
$var wire 32 ~" zero_res [31:0] $end
$var wire 27 !# sum_raw [26:0] $end
$var wire 26 "# sub_mant [25:0] $end
$var wire 9 ## sub_exp [8:0] $end
$var wire 1 $# sticky $end
$var wire 8 %# shift_amt [7:0] $end
$var wire 27 &# sh9 [26:0] $end
$var wire 27 '# sh8 [26:0] $end
$var wire 27 (# sh7 [26:0] $end
$var wire 27 )# sh6 [26:0] $end
$var wire 27 *# sh5 [26:0] $end
$var wire 27 +# sh4 [26:0] $end
$var wire 27 ,# sh3 [26:0] $end
$var wire 27 -# sh26 [26:0] $end
$var wire 27 .# sh25 [26:0] $end
$var wire 27 /# sh24 [26:0] $end
$var wire 27 0# sh23 [26:0] $end
$var wire 27 1# sh22 [26:0] $end
$var wire 27 2# sh21 [26:0] $end
$var wire 27 3# sh20 [26:0] $end
$var wire 27 4# sh2 [26:0] $end
$var wire 27 5# sh19 [26:0] $end
$var wire 27 6# sh18 [26:0] $end
$var wire 27 7# sh17 [26:0] $end
$var wire 27 8# sh16 [26:0] $end
$var wire 27 9# sh15 [26:0] $end
$var wire 27 :# sh14 [26:0] $end
$var wire 27 ;# sh13 [26:0] $end
$var wire 27 <# sh12 [26:0] $end
$var wire 27 =# sh11 [26:0] $end
$var wire 27 ># sh10 [26:0] $end
$var wire 27 ?# sh1 [26:0] $end
$var wire 1 @# sb $end
$var wire 1 A# sa $end
$var wire 1 B# s_sml $end
$var wire 1 C# s_big $end
$var wire 1 D# rnd_stk $end
$var wire 1 E# rnd_ovf $end
$var wire 32 F# result [31:0] $end
$var wire 9 G# pack_exp [8:0] $end
$var wire 32 H# one_zero_res [31:0] $end
$var wire 32 I# normal_res [31:0] $end
$var wire 1 J# norm_sign $end
$var wire 26 K# norm_mant [25:0] $end
$var wire 9 L# norm_exp [8:0] $end
$var wire 32 M# nan_res [31:0] $end
$var wire 23 N# mb [22:0] $end
$var wire 23 O# mant_pre [22:0] $end
$var wire 24 P# mant_ext [23:0] $end
$var wire 23 Q# ma [22:0] $end
$var wire 26 R# m_sml_sh [25:0] $end
$var wire 26 S# m_sml_final [25:0] $end
$var wire 26 T# m_sml_ext [25:0] $end
$var wire 24 U# m_sml [23:0] $end
$var wire 26 V# m_big_ext [25:0] $end
$var wire 24 W# m_big [23:0] $end
$var wire 24 X# m_b [23:0] $end
$var wire 24 Y# m_a [23:0] $end
$var wire 5 Z# lz_full [4:0] $end
$var wire 1 [# lz0 $end
$var wire 32 \# inf_res [31:0] $end
$var wire 1 ]# guard_bit $end
$var wire 23 ^# final_mant [22:0] $end
$var wire 9 _# final_exp [8:0] $end
$var wire 8 `# eb [7:0] $end
$var wire 8 a# ea [7:0] $end
$var wire 9 b# e_sml [8:0] $end
$var wire 9 c# e_big [8:0] $end
$var wire 9 d# e_b [8:0] $end
$var wire 9 e# e_a [8:0] $end
$var wire 26 f# add_mant [25:0] $end
$var wire 9 g# add_exp [8:0] $end
$upscope $end
$scope module u_fp32_add_ws_ext $end
$var wire 32 h# a [31:0] $end
$var wire 1 i# a_bigger $end
$var wire 1 j# a_inf $end
$var wire 1 k# a_nan $end
$var wire 1 l# a_zero $end
$var wire 1 m# add_carry $end
$var wire 1 n# any_inf $end
$var wire 1 o# any_nan $end
$var wire 32 p# b [31:0] $end
$var wire 1 q# b_inf $end
$var wire 1 r# b_nan $end
$var wire 1 s# b_zero $end
$var wire 1 t# both_zero $end
$var wire 1 u# do_inc $end
$var wire 1 v# do_sub $end
$var wire 1 w# inf_same $end
$var wire 1 x# lz1 $end
$var wire 1 y# lz10 $end
$var wire 1 z# lz11 $end
$var wire 1 {# lz12 $end
$var wire 1 |# lz13 $end
$var wire 1 }# lz14 $end
$var wire 1 ~# lz15 $end
$var wire 1 !$ lz16 $end
$var wire 1 "$ lz17 $end
$var wire 1 #$ lz18 $end
$var wire 1 $$ lz19 $end
$var wire 1 %$ lz2 $end
$var wire 1 &$ lz20 $end
$var wire 1 '$ lz21 $end
$var wire 1 ($ lz22 $end
$var wire 1 )$ lz23 $end
$var wire 1 *$ lz24 $end
$var wire 1 +$ lz25 $end
$var wire 1 ,$ lz3 $end
$var wire 1 -$ lz4 $end
$var wire 1 .$ lz5 $end
$var wire 1 /$ lz6 $end
$var wire 1 0$ lz7 $end
$var wire 1 1$ lz8 $end
$var wire 1 2$ lz9 $end
$var wire 1 3$ one_zero $end
$var wire 23 4$ pack_mant [22:0] $end
$var wire 32 5$ zero_res [31:0] $end
$var wire 27 6$ sum_raw [26:0] $end
$var wire 26 7$ sub_mant [25:0] $end
$var wire 9 8$ sub_exp [8:0] $end
$var wire 1 9$ sticky $end
$var wire 8 :$ shift_amt [7:0] $end
$var wire 27 ;$ sh9 [26:0] $end
$var wire 27 <$ sh8 [26:0] $end
$var wire 27 =$ sh7 [26:0] $end
$var wire 27 >$ sh6 [26:0] $end
$var wire 27 ?$ sh5 [26:0] $end
$var wire 27 @$ sh4 [26:0] $end
$var wire 27 A$ sh3 [26:0] $end
$var wire 27 B$ sh26 [26:0] $end
$var wire 27 C$ sh25 [26:0] $end
$var wire 27 D$ sh24 [26:0] $end
$var wire 27 E$ sh23 [26:0] $end
$var wire 27 F$ sh22 [26:0] $end
$var wire 27 G$ sh21 [26:0] $end
$var wire 27 H$ sh20 [26:0] $end
$var wire 27 I$ sh2 [26:0] $end
$var wire 27 J$ sh19 [26:0] $end
$var wire 27 K$ sh18 [26:0] $end
$var wire 27 L$ sh17 [26:0] $end
$var wire 27 M$ sh16 [26:0] $end
$var wire 27 N$ sh15 [26:0] $end
$var wire 27 O$ sh14 [26:0] $end
$var wire 27 P$ sh13 [26:0] $end
$var wire 27 Q$ sh12 [26:0] $end
$var wire 27 R$ sh11 [26:0] $end
$var wire 27 S$ sh10 [26:0] $end
$var wire 27 T$ sh1 [26:0] $end
$var wire 1 U$ sb $end
$var wire 1 V$ sa $end
$var wire 1 W$ s_sml $end
$var wire 1 X$ s_big $end
$var wire 1 Y$ rnd_stk $end
$var wire 1 Z$ rnd_ovf $end
$var wire 32 [$ result [31:0] $end
$var wire 9 \$ pack_exp [8:0] $end
$var wire 32 ]$ one_zero_res [31:0] $end
$var wire 32 ^$ normal_res [31:0] $end
$var wire 1 _$ norm_sign $end
$var wire 26 `$ norm_mant [25:0] $end
$var wire 9 a$ norm_exp [8:0] $end
$var wire 32 b$ nan_res [31:0] $end
$var wire 23 c$ mb [22:0] $end
$var wire 23 d$ mant_pre [22:0] $end
$var wire 24 e$ mant_ext [23:0] $end
$var wire 23 f$ ma [22:0] $end
$var wire 26 g$ m_sml_sh [25:0] $end
$var wire 26 h$ m_sml_final [25:0] $end
$var wire 26 i$ m_sml_ext [25:0] $end
$var wire 24 j$ m_sml [23:0] $end
$var wire 26 k$ m_big_ext [25:0] $end
$var wire 24 l$ m_big [23:0] $end
$var wire 24 m$ m_b [23:0] $end
$var wire 24 n$ m_a [23:0] $end
$var wire 5 o$ lz_full [4:0] $end
$var wire 1 p$ lz0 $end
$var wire 32 q$ inf_res [31:0] $end
$var wire 1 r$ guard_bit $end
$var wire 23 s$ final_mant [22:0] $end
$var wire 9 t$ final_exp [8:0] $end
$var wire 8 u$ eb [7:0] $end
$var wire 8 v$ ea [7:0] $end
$var wire 9 w$ e_sml [8:0] $end
$var wire 9 x$ e_big [8:0] $end
$var wire 9 y$ e_b [8:0] $end
$var wire 9 z$ e_a [8:0] $end
$var wire 26 {$ add_mant [25:0] $end
$var wire 9 |$ add_exp [8:0] $end
$upscope $end
$upscope $end
$scope task check_result $end
$var reg 32 }$ exp [31:0] $end
$var reg 32 ~$ got [31:0] $end
$var integer 32 !% test_id [31:0] $end
$upscope $end
$scope task drive_beat $end
$var reg 16 "% a [15:0] $end
$var reg 32 #% acc [31:0] $end
$var reg 1 $% fl $end
$var reg 16 %% w [15:0] $end
$upscope $end
$scope task drive_ws_beat $end
$var reg 16 &% a [15:0] $end
$var reg 32 '% acc [31:0] $end
$upscope $end
$scope task reset_dut $end
$upscope $end
$upscope $end
$enddefinitions $end
$comment Show the parameter values. $end
$dumpall
b100000 R"
b10000 C
b100000 B
b10000 %
b1010 $
b100000 #
$end
#0
$dumpvars
bx '%
bx &%
bx %%
x$%
bx #%
bx "%
bx !%
bx ~$
bx }$
bx |$
bx {$
b0xxxxxxxx z$
b0xxxxxxxx y$
b0xxxxxxxx x$
b0xxxxxxxx w$
bx v$
bx u$
bx t$
bx s$
xr$
bx11111111x0000000000000000000000 q$
xp$
bx o$
b1xxxxxxxxxxxxxxxxxxxxxxx n$
b1xxxxxxxxxx0000000000000 m$
b1xxxxxxxxxxxxxxxxxxxxxxx l$
b1xxxxxxxxxxxxxxxxxxxxxxx00 k$
b1xxxxxxxxxxxxxxxxxxxxxxx j$
b1xxxxxxxxxxxxxxxxxxxxxxx00 i$
bx h$
bx g$
bx f$
bx e$
bx d$
bx0000000000000 c$
bx b$
bx a$
bx `$
x_$
bx ^$
bx ]$
bx \$
bx [$
xZ$
xY$
xX$
xW$
xV$
xU$
bx T$
bx S$
bx R$
bx Q$
bx P$
bx O$
bx N$
bx M$
bx L$
bx K$
bx J$
bx I$
bx H$
bx G$
bx F$
bx E$
bx D$
bx C$
bx B$
bx A$
bx @$
bx ?$
bx >$
bx =$
bx <$
bx ;$
bx :$
x9$
bx 8$
bx 7$
bx 6$
b0 5$
bx 4$
x3$
x2$
x1$
x0$
x/$
x.$
x-$
x,$
x+$
x*$
x)$
x($
x'$
x&$
x%$
x$$
x#$
x"$
x!$
x~#
x}#
x|#
x{#
xz#
xy#
xx#
xw#
xv#
xu#
xt#
xs#
xr#
xq#
bx0000000000000 p#
xo#
xn#
xm#
xl#
xk#
xj#
xi#
bx h#
bx g#
bx f#
b0xxxxxxxx e#
b0xxxxxxxx d#
b0xxxxxxxx c#
b0xxxxxxxx b#
bx a#
bx `#
bx _#
bx ^#
x]#
bx11111111x0000000000000000000000 \#
x[#
bx Z#
b1xxxxxxxxxxxxxxxxxxxxxxx Y#
b1xxxxxxxxxx0000000000000 X#
b1xxxxxxxxxxxxxxxxxxxxxxx W#
b1xxxxxxxxxxxxxxxxxxxxxxx00 V#
b1xxxxxxxxxxxxxxxxxxxxxxx U#
b1xxxxxxxxxxxxxxxxxxxxxxx00 T#
bx S#
bx R#
bx Q#
bx P#
bx O#
bx0000000000000 N#
bx M#
bx L#
bx K#
xJ#
bx I#
bx H#
bx G#
bx F#
xE#
xD#
xC#
xB#
xA#
x@#
bx ?#
bx >#
bx =#
bx <#
bx ;#
bx :#
bx 9#
bx 8#
bx 7#
bx 6#
bx 5#
bx 4#
bx 3#
bx 2#
bx 1#
bx 0#
bx /#
bx .#
bx -#
bx ,#
bx +#
bx *#
bx )#
bx (#
bx '#
bx &#
bx %#
x$#
bx ##
bx "#
bx !#
b0 ~"
bx }"
x|"
x{"
xz"
xy"
xx"
xw"
xv"
xu"
xt"
xs"
xr"
xq"
xp"
xo"
xn"
xm"
xl"
xk"
xj"
xi"
xh"
xg"
xf"
xe"
xd"
xc"
xb"
xa"
x`"
x_"
x^"
x]"
x\"
bx0000000000000 ["
xZ"
xY"
xX"
xW"
xV"
xU"
xT"
bx S"
bx Q"
bx P"
bx O"
b0xxxxx N"
b0xxxxx M"
bx L"
xK"
bx J"
b0xxxxxxxxxxxxxxxx I"
bx H"
xG"
xF"
xE"
bx D"
bx C"
bx B"
bx A"
bx @"
bx ?"
bx >"
bx ="
bx <"
bx ;"
x:"
bx 9"
bx 8"
bx 7"
bx 6"
bx 5"
bx 4"
x3"
x2"
bx 1"
x0"
x/"
bx00000000000 ."
bx -"
bx ,"
bx +"
x*"
bx0000000000 )"
bx00000000 ("
bx0000 '"
bx &"
bx %"
x$"
x#"
b0xxxxxxxxxxx ""
b0xxxxxxxxxxx !"
x~
x}
b0xxxxxxxxxxxxxxxx |
x{
xz
xy
xx
xw
xv
xu
xt
xs
xr
xq
xp
xo
xn
xm
xl
xk
xj
xi
xh
xg
xf
xe
xd
xc
xb
xa
x`
x_
bx ^
x]
x\
x[
bx Z
0Y
xX
xW
xV
bx U
bx T
bx S
bx R
xQ
xP
bx O
xN
xM
bx L
bx K
xJ
xI
xH
xG
bx F
bx E
bx D
b0xxxxxxxxxxxxxxxx A
bx @
bx0000000000000 ?
bx >
bx =
bx <
bx ;
bx :
bx 9
b0 8
b0 7
b0 6
b0 5
bx 4
b0 3
b0 2
b0 1
00
0/
0.
0-
bx ,
bx +
0*
0)
0(
b0 '
b0 &
bx "
x!
$end
#5000
b0 "#
b0 ##
b0 7$
b0 8$
b0 ?#
b0 4#
b0 ,#
b0 +#
b0 *#
b0 )#
b0 (#
b0 '#
b0 &#
b0 >#
b0 =#
b0 <#
b0 ;#
b0 :#
b0 9#
b0 8#
b0 7#
b0 6#
b0 5#
b0 3#
b0 2#
b0 1#
b0 0#
b0 /#
b0 .#
b0 -#
b0 T$
b0 I$
b0 A$
b0 @$
b0 ?$
b0 >$
b0 =$
b0 <$
b0 ;$
b0 S$
b0 R$
b0 Q$
b0 P$
b0 O$
b0 N$
b0 M$
b0 L$
b0 K$
b0 J$
b0 H$
b0 G$
b0 F$
b0 E$
b0 D$
b0 C$
b0 B$
b11010 Z#
b11010 o$
1t"
1+$
1s"
1*$
1r"
1)$
1q"
1($
1p"
1'$
1o"
1&$
1m"
1$$
1l"
1#$
0c
1k"
1"$
1K"
1j"
1!$
b11 J"
b1011110 L"
0G"
b0 1"
1i"
1~#
b10101 9"
1F"
1#"
b1011110 Q"
b10110 D"
1h"
1}#
1t
1g"
1|#
1s
b0 ,"
0*"
1f"
1{#
1q
0$"
b0 -"
0~
1e"
1z#
1p
0/"
1d"
1y#
1o
1{"
12$
1n
1z"
11$
1m
b0 +"
1y"
10$
1l
b0 >"
1x"
b0 }"
b0 ^#
1/$
b0 4$
b0 s$
1k
0:"
b0 %"
b10 G#
1w"
0E#
b10 \$
1.$
0Z$
1j
b0 @"
0b
b0 &"
b10 _#
1v"
b0 P#
0`"
b10 t$
1-$
b0 e$
0u#
1i
b0 '"
1u"
b0 O#
0]#
0D#
1,$
b0 d$
0r$
0Y$
1h
b0 ("
1n"
b10000000000000000000000000 K#
1%$
b10000000000000000000000000 `$
1{
b0 )"
1X"
1c"
b10000000000000000000000000 f#
1m#
1x#
b10000000000000000000000000 {$
1z
b0 ?"
b0 ."
1[#
1p$
1y
b100000000000000000000000000 !#
b100000000000000000000000000 6$
1x
1w
b10000000000000000000000000 S#
b10000000000000000000000000 h$
1v
b0 4"
b0 A
b0 |
b0 I"
b0 H"
b0 >
b0 F#
b10000000000000000000000000 R#
0$#
b0 =
b0 [$
b10000000000000000000000000 g$
09$
1u
b0 5"
b10 L#
b0 %#
b10 g#
0Y"
b10 a$
b0 :$
b10 |$
0n#
1r
b0 6"
b1000000000000000000000000 I#
0J#
0a"
b1111111100000000000000000000000 \#
1T"
b1 c#
b1 b#
1_"
0|"
0Z"
b1000000000000000000000000 ^$
0_$
0v#
b1111111100000000000000000000000 q$
1i#
b1 x$
b1 w$
1t#
03$
0o#
1g
b0 7"
1f
0e
0d
0C#
0B#
1b"
b1 d#
1^"
0\"
0]"
0X$
0W$
1w#
b1 y$
1s#
0q#
0r#
1E"
b0 8"
00"
0@#
b0 `#
b100000000000000000000000 X#
b0 N#
0U$
b0 u$
b100000000000000000000000 m$
b0 c$
b1 e#
1W"
0U"
0V"
b10000000000000000000000000 V#
b100000000000000000000000 W#
b10000000000000000000000000 T#
b100000000000000000000000 U#
b0 <"
b1 M"
1a
0_
0`
0}
b1 N"
1]
0[
0\
b1 z$
1l#
0j#
0k#
b10000000000000000000000000 k$
b100000000000000000000000 l$
b10000000000000000000000000 i$
b100000000000000000000000 j$
b0 ?
b0 ["
b0 p#
0W
0V
1X
b0 T
b0 U
0A#
b0 a#
b100000000000000000000000 Y#
b0 Q#
b0 M#
b0 H#
b0 :
b0 ;
b0 <
02"
b0 ;"
b0 O"
b0 !"
b0 A"
b0 ="
b0 9
03"
b0 P"
b0 ""
b0 B"
b0 C"
0V$
b0 v$
b100000000000000000000000 n$
b0 f$
b0 b$
b0 ]$
b0 @
b0 S"
b0 R
0I
0H
0G
0J
b0 F
b0 ^
b0 K
b0 Z
b0 L
b0 h#
0N
0P
0M
0Q
b0 O
0!
b0 "
b0 D
b0 S
b0 E
1(
#10000
0(
#15000
1(
#20000
0(
#25000
1(
#30000
0(
#35000
1/
1(
#40000
0(
#45000
b11 ,
1(
#50000
0(
#55000
1(
#56000
1Y
1)
1-
b1 &
b1 6
b11 1
b11 8
#60000
0Y
0(
#65000
b1 J"
b1100000 L"
b10111 9"
b1100000 Q"
b10100 D"
b0 7"
0s
0t
b1 8"
0f
0a
b11 <"
0]
b11 :
b11 ;
b1 <
b11 ;"
b1 !"
b1 A"
b1 ="
b11 9
b11 ""
b11 B"
b11 C"
b11 R
b1 F
b1 ^
b11 K
b11 Z
1J
1Y
1(
#66000
0Y
b0 '%
b10 &%
0-
0)
#70000
0(
#75000
0s"
0*$
0r"
0)$
0q"
0($
0p"
0'$
0o"
0&$
0m"
0$$
0l"
0#$
0y"
0k"
00$
0"$
0x"
0j"
0/$
0!$
0w"
0i"
0.$
0~#
1D#
0v"
b10000000011000000000000001 "#
b1110001 ##
0h"
1Y$
0-$
b10000000011000000000000001 7$
b1110001 8$
0}#
0u"
0g"
b110000000000000 }"
b110000000000000 ^#
0,$
0|#
b110000000000000 4$
b110000000000000 s$
0n"
b0 Z#
0f"
0%$
b0 o$
0{#
0X"
0c"
0t"
b111000100000000110000000000000 I#
0e"
b110000000000000 P#
b110000000000000 O#
0m#
0x#
0+$
b111000100000000110000000000000 ^$
0z#
b110000000000000 e$
b110000000000000 d$
0[#
b1110001 G#
0d"
b10000000011000000000000001 K#
0p$
b1110001 \$
0y#
b10000000011000000000000001 `$
b10000000011000000000000001 -#
b10000000011000000000000001 .#
b10000000011000000000000001 /#
b10000000011000000000000001 0#
b10000000011000000000000001 1#
b10000000011000000000000001 2#
b10000000011000000000000001 3#
b10000000011000000000000001 5#
b10000000011000000000000001 6#
b10000000011000000000000001 7#
b10000000011000000000000001 8#
b10000000011000000000000001 9#
b10000000011000000000000001 :#
b10000000011000000000000001 ;#
b10000000011000000000000001 <#
b10000000011000000000000001 =#
b1110001 _#
0z"
0{"
b10000000011000000000000001 f#
b10000000011000000000000001 B$
b10000000011000000000000001 C$
b10000000011000000000000001 D$
b10000000011000000000000001 E$
b10000000011000000000000001 F$
b10000000011000000000000001 G$
b10000000011000000000000001 H$
b10000000011000000000000001 J$
b10000000011000000000000001 K$
b10000000011000000000000001 L$
b10000000011000000000000001 M$
b10000000011000000000000001 N$
b10000000011000000000000001 O$
b10000000011000000000000001 P$
b10000000011000000000000001 Q$
b10000000011000000000000001 R$
b1110001 t$
01$
02$
b10000000011000000000000001 {$
b111000100000000110000000000000 >
b111000100000000110000000000000 F#
1$#
b1110001 L#
b111000100000000110000000000000 =
b111000100000000110000000000000 [$
19$
b1110001 a$
b1110000 %#
b1110001 g#
b10000000011000000000000001 >#
b10000000011000000000000001 &#
b10000000011000000000000001 '#
b10000000011000000000000001 (#
b10000000011000000000000001 )#
b10000000011000000000000001 *#
b10000000011000000000000001 +#
b10000000011000000000000001 ,#
b10000000011000000000000001 4#
b10000000011000000000000001 ?#
b10000000011000000000000001 !#
b1110000 :$
b1110001 |$
b10000000011000000000000001 S$
b10000000011000000000000001 ;$
b10000000011000000000000001 <$
b10000000011000000000000001 =$
b10000000011000000000000001 >$
b10000000011000000000000001 ?$
b10000000011000000000000001 @$
b10000000011000000000000001 A$
b10000000011000000000000001 I$
b10000000011000000000000001 T$
b10000000011000000000000001 6$
b10000000011000000000000000 V#
b100000000110000000000000 W#
b1110001 c#
b1 S#
b10000000011000000000000000 k$
b100000000110000000000000 l$
b1110001 x$
b1 h$
0_"
1|"
0T"
b0 R#
0t#
13$
0i#
b0 g$
b1110001 d#
0^"
b10000000000000000000000000 T#
b100000000000000000000000 U#
b1110001 y$
0s#
b10000000000000000000000000 i$
b100000000000000000000000 j$
b1110001 `#
b100000000110000000000000 X#
b110000000000000 N#
b111000100000000110000000000000 M#
b111000100000000110000000000000 H#
b1110001 u$
b100000000110000000000000 m$
b110000000000000 c$
b111000100000000110000000000000 b$
b111000100000000110000000000000 ]$
b111000100000000110000000000000 ?
b111000100000000110000000000000 ["
b111000100000000110000000000000 p#
0X
b11 U
b11 O
1Q
0J
1(
#76000
1Y
1)
b10 &
b10 6
b0 1
b0 8
#80000
0Y
0(
#85000
b110 6"
b110 7"
b0 J"
b1100001 L"
b11000 9"
b1100001 Q"
b10011 D"
0q
b110 8"
0|"
b11 H#
0W"
b10000000000000000000001100 T#
b100000000000000000000011 U#
b110 <"
b100000000000000000000011 Y#
b11 Q#
b110 :
b110 ;
b10 <
b110 ;"
b10 !"
b10 A"
b10 ="
b11 @
b11 S"
b10 F
b10 ^
1J
0Q
b11 S
1Y
1(
#86000
0Y
b11 &%
0)
#90000
0(
