sim/wave/tb_pe_top.vcd
$date
	Fri Apr 03 09:57:18 2026
$end
$version
	Icarus Verilog
$end
$timescale
	1ps
$end
$scope module tb_pe_top $end
$var wire 1 ! valid_out $end
$var wire 32 " acc_out [31:0] $end
$var parameter 32 # ACC_W $end
$var parameter 32 $ CLK_PERIOD $end
$var parameter 32 % DATA_W $end
$var reg 16 & a_in [15:0] $end
$var reg 32 ' acc_in [31:0] $end
$var reg 1 ( clk $end
$var reg 1 ) en $end
$var reg 1 * flush $end
$var reg 8 + ia [7:0] $end
$var reg 8 , iw [7:0] $end
$var reg 1 - mode $end
$var reg 1 . rst_n $end
$var reg 1 / stat_mode $end
$var reg 16 0 w_in [15:0] $end
$var integer 32 1 fail_cnt [31:0] $end
$var integer 32 2 pass_cnt [31:0] $end
$scope module u_pe $end
$var wire 16 3 a_in [15:0] $end
$var wire 32 4 acc_in [31:0] $end
$var wire 1 ( clk $end
$var wire 1 ) en $end
$var wire 1 * flush $end
$var wire 1 - mode $end
$var wire 1 . rst_n $end
$var wire 1 / stat_mode $end
$var wire 16 5 w_in [15:0] $end
$var wire 8 6 int8_w [7:0] $end
$var wire 32 7 int8_prod [31:0] $end
$var wire 16 8 int8_mul_16 [15:0] $end
$var wire 8 9 int8_a [7:0] $end
$var wire 32 : fp16_mul_out [31:0] $end
$var parameter 32 ; ACC_W $end
$var parameter 32 < DATA_W $end
$var reg 32 = acc_out [31:0] $end
$var reg 32 > os_acc [31:0] $end
$var reg 16 ? s0_a [15:0] $end
$var reg 1 @ s0_flush $end
$var reg 1 A s0_mode $end
$var reg 1 B s0_stat $end
$var reg 1 C s0_valid $end
$var reg 16 D s0_w [15:0] $end
$var reg 32 E s1_acc_in [31:0] $end
$var reg 1 F s1_flush $end
$var reg 32 G s1_mul [31:0] $end
$var reg 1 H s1_stat $end
$var reg 1 I s1_valid $end
$var reg 1 ! valid_out $end
$var reg 16 J weight_reg [15:0] $end
$scope module u_fp16_mul $end
$var wire 1 K _unused $end
$var wire 16 L a [15:0] $end
$var wire 1 M a_inf $end
$var wire 1 N a_nan $end
$var wire 1 O a_zero $end
$var wire 16 P b [15:0] $end
$var wire 1 Q b_inf $end
$var wire 1 R b_nan $end
$var wire 1 S b_zero $end
$var wire 1 ( clk $end
$var wire 1 ) en $end
$var wire 1 T exp_ovf $end
$var wire 1 U is_inf $end
$var wire 1 V is_nan $end
$var wire 1 W is_zero $end
$var wire 32 X result [31:0] $end
$var wire 1 . rst_n $end
$var wire 1 Y sign_r $end
$var wire 1 Z sb $end
$var wire 1 [ sa $end
$var wire 1 \ norm_shift $end
$var wire 10 ] mb [9:0] $end
$var wire 10 ^ mant_r [9:0] $end
$var wire 22 _ mant_prod [21:0] $end
$var wire 11 ` mant_norm [10:0] $end
$var wire 11 a mant_b [10:0] $end
$var wire 11 b mant_a [10:0] $end
$var wire 10 c ma [9:0] $end
$var wire 16 d fp16_result [15:0] $end
$var wire 32 e fp16_ext [31:0] $end
$var wire 1 f exp_unf $end
$var wire 6 g exp_sum [5:0] $end
$var wire 6 h exp_raw [5:0] $end
$var wire 5 i exp_r [4:0] $end
$var wire 5 j eb [4:0] $end
$var wire 5 k ea [4:0] $end
$var parameter 32 l ACC_W $end
$upscope $end
$upscope $end
$scope task check_result $end
$var reg 32 m exp [31:0] $end
$var reg 32 n got [31:0] $end
$var reg 64 o test_id [63:0] $end
$upscope $end
$scope task drive_beat $end
$var reg 16 p a [15:0] $end
$var reg 32 q acc [31:0] $end
$var reg 1 r fl $end
$var reg 16 s w [15:0] $end
$upscope $end
$scope task reset_dut $end
$upscope $end
$upscope $end
$enddefinitions $end
$comment Show the parameter values. $end
$dumpall
b100000 l
b10000 <
b100000 ;
b10000 %
b1010 $
b100000 #
$end
#0
$dumpvars
bx s
xr
bx q
bx p
bx o
bx n
bx m
bx k
bx j
bx i
bx h
bx g
xf
bx e
bx d
bx c
b1xxxxxxxxxx b
b1xxxxxxxxxx a
bx `
bx _
bx ^
bx ]
x\
x[
xZ
xY
bx X
xW
xV
xU
xT
xS
xR
xQ
bx P
xO
xN
xM
bx L
0K
bx J
xI
xH
bx G
xF
bx E
bx D
xC
xB
xA
x@
bx ?
bx >
bx =
bx :
bx 9
bx 8
bx 7
bx 6
b0 5
b0 4
b0 3
b0 2
b0 1
b0 0
0/
0.
0-
bx ,
bx +
0*
0)
0(
b0 '
b0 &
bx "
x!
$end
#5000
b0 i
0T
b0 ^
1W
0V
0U
1f
b10000000000 `
b0 :
b0 X
b0 e
b0 d
1S
0Q
0R
b110001 h
0\
0Y
1O
0M
0N
b0 7
b0 8
b0 9
0Z
b0 g
b0 j
b100000000000000000000 _
b10000000000 a
b0 ]
b0 6
0[
b0 k
b10000000000 b
b0 c
b0 J
0B
0A
0@
0C
b0 ?
b0 P
b0 D
b0 L
b0 E
0H
0F
0I
b0 G
0!
b0 "
b0 =
b0 >
1(
#10000
0(
#15000
1(
#20000
0(
#25000
1(
#30000
0(
#35000
1.
1(
#40000
0(
#45000
b11 ,
1(
#50000
0(
#55000
1(
#56000
1K
1)
b1 &
b1 3
b11 0
b11 5
#60000
0K
0(
#65000
0W
b10000000100 `
0S
0O
b11 7
b11 8
b1 9
b10000000001 a
b1 ]
b11 6
b100000001000000000011 _
b10000000011 b
b11 c
b1 ?
b1 P
b11 D
b11 L
1C
1K
1(
#70000
0K
0(
#75000
b11 G
1I
1K
1(
#80000
0K
0(
#85000
1!
b11 "
b11 =
1K
1(
#86000
b11 '
b11 4
b10 &
b10 3
#90000
0K
0(
#95000
b10000000101 `
b110 7
b110 8
b10 9
b100000001010000000110 _
b10000000010 a
b10 ]
1!
b11 E
b10 ?
b10 P
1K
1(
#100000
0K
0(
#105000
b110 G
b110 "
b110 =
1!
1K
1(
#110000
0K
0(
#115000
b1001 "
b1001 =
1!
1K
1(
#116000
b1001 '
b1001 4
b11 &
b11 3
#120000
0K
0(
#125000
b10000000110 `
b1001 7
b1001 8
b11 9
b100000001100000001001 _
b10000000011 a
b11 ]
b11 ?
b11 P
b1001 E
1!
1K
1(
#130000
0K
0(
#135000
b1111 "
b1111 =
1!
b1001 G
1K
1(
#140000
0K
0(
#145000
b10010 "
b10010 =
1!
1K
1(
#146000
b10010 '
b10010 4
b100 &
b100 3
#150000
0K
0(
#155000
b10000000111 `
b1100 7
b1100 8
b100 9
b100000001110000001100 _
b10000000100 a
b100 ]
1!
b10010 E
b100 ?
b100 P
1K
1(
#160000
0K
0(
#165000
b1100 G
b11011 "
b11011 =
1!
1K
1(
#170000
0K
0(
#175000
b11110 "
b11110 =
1!
1K
1(
#176000
0K
b0 '
b0 4
b0 &
b0 3
b0 0
b0 5
0.
b1 2
b1 o
b11110 m
b11110 n
0)
#180000
0(
#185000
1W
b10000000000 `
1S
1O
b0 9
b10000000000 a
b0 ]
b0 7
b0 8
b0 6
b100000000000000000000 _
b10000000000 b
b0 c
0C
b0 ?
b0 P
b0 D
b0 L
b0 E
0I
b0 G
0!
b0 "
b0 =
1(
#190000
0(
#195000
1(
#200000
0(
#205000
1(
#210000
0(
#215000
1.
1(
#220000
0(
#225000
b10 +
1/
1(
#230000
0(
#235000
1(
#236000
1K
1)
b10 &
b10 3
b1 0
b1 5
#240000
0K
0(
#245000
0W
b10000000011 `
0S
0O
b10 7
b10 8
b10 9
b10000000010 a
b10 ]
b1 6
b100000000110000000010 _
b10000000001 b
b1 c
b10 ?
b10 P
b1 D
b1 L
1C
1B
1K
1(
#246000
b10 0
b10 5
#250000
0K
0(
#255000
b10000000100 `
b100 7
b100 8
b10 6
b100000001000000000100 _
b10000000010 b
b10 c
b10 G
1H
1I
b10 D
b10 L
1K
1(
#256000
b11 0
b11 5
#260000
0K
0(
#265000
b10000000101 `
b110 7
b110 8
b11 6
b100000001010000000110 _
b10000000011 b
b11 c
b11 D
b11 L
b100 G
b10 >
1K
1(
#266000
b100 0
b100 5
#270000
0K
0(
#275000
b10000000110 `
b1000 7
b1000 8
b100 6
b100000001100000001000 _
b10000000100 b
b100 c
b110 >
b110 G
b100 D
b100 L
1K
1(
#276000
0K
0)
#280000
0(
#285000
0C
b1000 G
b1100 >
1(
#290000
0(
#295000
b10100 >
0I
1(
#296000
1K
1)
1*
b0 &
b0 3
b0 0
b0 5
#300000
0K
0(
#305000
1W
b10000000000 `
1S
1O
b0 9
b10000000000 a
b0 ]
b0 7
b0 8
b0 6
b100000000000000000000 _
b10000000000 b
b0 c
b0 ?
b0 P
b0 D
b0 L
1C
1@
1K
1(
#306000
0K
0)
0*
#310000
0(
#315000
b0 G
1F
1I
0@
0C
1(
#320000
0(
#325000
0I
1!
b0 >
b10100 "
b10100 =
1(
#330000
0(
#335000
0!
1(
#336000
0/
0.
b10 2
b10 o
b10100 m
b10100 n
#340000
0(
#345000
0B
0H
0F
b0 "
b0 =
1(
#350000
0(
#355000
1(
#360000
0(
#365000
1(
#370000
0(
#375000
1.
1(
#380000
0(
#385000
1-
1(
#390000
0(
#395000
1(
#396000
1K
1)
b11111000000000 &
b11111000000000 3
b100000000000000 0
b100000000000000 5
#400000
0K
0(
#405000
b100001000000000 :
b100001000000000 X
b100001000000000 e
b100001000000000 d
b1000000000 ^
0W
b10000 i
b11000000000 `
0S
0O
0f
b1111 j
b110000000000000000000 _
b11000000000 a
b1000000000 ]
b10000 h
b11111 g
b10000 k
b11111000000000 ?
b11111000000000 P
b100000000000000 D
b100000000000000 L
1C
1A
1K
1(
#410000
0K
0(
#415000
b100001000000000 G
1I
1K
1(
#420000
0K
0(
#425000
1!
b100001000000000 "
b100001000000000 =
1K
1(
#426000
0K
0-
b0 &
b0 3
b0 0
b0 5
0.
b11 2
b11 o
b100001000000000 m
b100001000000000 n
0)
#430000
0(
#435000
b0 :
b0 X
b0 e
b0 d
1W
b0 i
b0 ^
b10000000000 `
1f
1S
1O
b0 j
b100000000000000000000 _
b10000000000 a
b0 ]
b110001 h
b0 g
b0 k
0!
b0 "
b0 =
0I
b0 G
0A
0C
b0 ?
b0 P
b0 D
b0 L
1(
#440000
0(
#445000
1(
#450000
0(
#455000
1(
#460000
0(
#465000
1.
1(
#470000
0(
#475000
1/
1-
1(
#480000
0(
#485000
1(
#486000
1K
1)
b11111000000000 &
b11111000000000 3
b100000000000000 0
b100000000000000 5
#490000
0K
0(
#495000
b100001000000000 :
b100001000000000 X
b100001000000000 e
b100001000000000 d
b1000000000 ^
0W
b10000 i
b11000000000 `
0S
0O
0f
b1111 j
b110000000000000000000 _
b11000000000 a
b1000000000 ]
b10000 h
b11111 g
b10000 k
b11111000000000 ?
b11111000000000 P
b100000000000000 D
b100000000000000 L
1C
1B
1A
1K
1(
#500000
0K
0(
#505000
b100001000000000 G
1H
1I
1K
1(
#506000
0K
0)
#510000
0(
#515000
b100001000000000 >
0C
1(
#520000
0(
#525000
0I
b1000010000000000 >
1(
#526000
1K
1)
1*
b0 &
b0 3
b0 0
b0 5
#530000
0K
0(
#535000
b0 :
b0 X
b0 e
b0 d
1W
b0 i
b0 ^
b10000000000 `
1f
1S
1O
b0 j
b100000000000000000000 _
b10000000000 a
b0 ]
b110001 h
b0 g
b0 k
b0 ?
b0 P
b0 D
b0 L
1C
1@
1K
1(
#536000
0K
0)
0*
#540000
0(
#545000
0@
0C
b0 G
1F
1I
1(
#550000
0(
#555000
1!
b0 >
b1000010000000000 "
b1000010000000000 =
0I
1(
#560000
0(
#565000
0!
1(
#566000
b100 2
b100 o
b1000010000000000 m
b1000010000000000 n
