tb/matmul/sq_fp16_4x4/sim.log

################################################################
  Matrix Multiplication OS Test: 4x4 x 4x4 = 4x4
  Data type: FP16
################################################################
    M_DIM readback = 4
    N_DIM readback = 4
    K_DIM readback = 4
    NPU ctrl state=0, tile_i=3, tile_j=3, tile_count=16/16
    DMA state=0, r_pending=0
    Checking 4x4 results...
    C[0][0]: addr=0x00010240 got=0x40300000 exp=0x40300000
    C[0][1]: addr=0x00010244 got=0xbfb80000 exp=0xbfb80000
    C[0][2]: addr=0x00010248 got=0xbf100000 exp=0xbf100000
    C[0][3]: addr=0x0001024c got=0x3fa00000 exp=0x3fa00000
    C[1][0]: addr=0x00010250 got=0xc0700000 exp=0xc0700000
    C[1][1]: addr=0x00010254 got=0xbf400000 exp=0xbf400000
    C[1][2]: addr=0x00010258 got=0xc0a00000 exp=0xc0a00000
    C[1][3]: addr=0x0001025c got=0xbe800000 exp=0xbe800000
    C[2][0]: addr=0x00010260 got=0xc0980000 exp=0xc0980000
    C[2][1]: addr=0x00010264 got=0x40480000 exp=0x40480000
    C[2][2]: addr=0x00010268 got=0xbec00000 exp=0xbec00000
    C[2][3]: addr=0x0001026c got=0xc0000000 exp=0xc0000000
    C[3][0]: addr=0x00010270 got=0x40580000 exp=0x40580000
    C[3][1]: addr=0x00010274 got=0x3f600000 exp=0x3f600000
    C[3][2]: addr=0x00010278 got=0x3f000000 exp=0x3f000000
    C[3][3]: addr=0x0001027c got=0x3fd00000 exp=0x3fd00000
    Results: 16 pass, 0 fail

################################################################
  ALL 16 CHECKS PASSED
################################################################
D:\NPU_prj\tb\matmul\tb_matmul_os.v:400: $finish called at 7245000 (1ps)
