tb/matmul/sq_int8_4x4/sim.log

################################################################
  Matrix Multiplication OS Test: 4x4 x 4x4 = 4x4
  Data type: INT8
################################################################
    M_DIM readback = 4
    N_DIM readback = 4
    K_DIM readback = 4
    NPU ctrl state=0, tile_i=3, tile_j=3, tile_count=16/16
    DMA state=0, r_pending=0
    Checking 4x4 results...
    C[0][0]: addr=0x00010220 got=0xfffff894 exp=0xfffff894
    C[0][1]: addr=0x00010224 got=0xfffff560 exp=0xfffff560
    C[0][2]: addr=0x00010228 got=0x0000032a exp=0x0000032a
    C[0][3]: addr=0x0001022c got=0x000006ce exp=0x000006ce
    C[1][0]: addr=0x00010230 got=0xffffe1c2 exp=0xffffe1c2
    C[1][1]: addr=0x00010234 got=0x00000793 exp=0x00000793
    C[1][2]: addr=0x00010238 got=0x00000038 exp=0x00000038
    C[1][3]: addr=0x0001023c got=0xffffee00 exp=0xffffee00
    C[2][0]: addr=0x00010240 got=0xfffffe6a exp=0xfffffe6a
    C[2][1]: addr=0x00010244 got=0xffffffc9 exp=0xffffffc9
    C[2][2]: addr=0x00010248 got=0x00000c1a exp=0x00000c1a
    C[2][3]: addr=0x0001024c got=0x00000596 exp=0x00000596
    C[3][0]: addr=0x00010250 got=0x00000a34 exp=0x00000a34
    C[3][1]: addr=0x00010254 got=0x00000dea exp=0x00000dea
    C[3][2]: addr=0x00010258 got=0x0000025c exp=0x0000025c
    C[3][3]: addr=0x0001025c got=0xfffff9cc exp=0xfffff9cc
    Results: 16 pass, 0 fail

################################################################
  ALL 16 CHECKS PASSED
################################################################
D:\NPU_prj\tb\matmul\tb_matmul_os.v:400: $finish called at 5325000 (1ps)
