tb/tb_pe_top.vcd
$date
	Tue Apr 07 18:55:25 2026
$end
$version
	Icarus Verilog
$end
$timescale
	1ps
$end
$scope module tb_pe_top $end
$var wire 1 ! valid_out $end
$var wire 32 " acc_out [31:0] $end
$var parameter 32 # ACC_W $end
$var parameter 32 $ CLK_PERIOD $end
$var parameter 32 % DATA_W $end
$var reg 16 & a_in [15:0] $end
$var reg 32 ' acc_in [31:0] $end
$var reg 1 ( clk $end
$var reg 1 ) en $end
$var reg 1 * flush $end
$var reg 8 + ia [7:0] $end
$var reg 8 , iw [7:0] $end
$var reg 1 - load_w $end
$var reg 1 . mode $end
$var reg 1 / rst_n $end
$var reg 1 0 stat_mode $end
$var reg 16 1 w_in [15:0] $end
$var integer 32 2 fail_cnt [31:0] $end
$var integer 32 3 fail_idx [31:0] $end
$var integer 32 4 k [31:0] $end
$var integer 32 5 pass_cnt [31:0] $end
$scope module u_pe $end
$var wire 16 6 a_in [15:0] $end
$var wire 32 7 acc_in [31:0] $end
$var wire 1 ( clk $end
$var wire 1 ) en $end
$var wire 1 * flush $end
$var wire 1 - load_w $end
$var wire 1 . mode $end
$var wire 1 / rst_n $end
$var wire 1 0 stat_mode $end
$var wire 16 8 w_in [15:0] $end
$var wire 32 9 ws_fp32_sum [31:0] $end
$var wire 8 : int8_w [7:0] $end
$var wire 32 ; int8_prod [31:0] $end
$var wire 16 < int8_mul_16 [15:0] $end
$var wire 8 = int8_a [7:0] $end
$var wire 32 > fp32_sum [31:0] $end
$var wire 32 ? fp32_b [31:0] $end
$var wire 32 @ fp32_a [31:0] $end
$var wire 32 A fp16_mul_out [31:0] $end
$var parameter 32 B ACC_W $end
$var parameter 32 C DATA_W $end
$var reg 32 D acc_out [31:0] $end
$var reg 32 E os_acc [31:0] $end
$var reg 16 F s0_a [15:0] $end
$var reg 1 G s0_flush $end
$var reg 1 H s0_mode $end
$var reg 1 I s0_stat $end
$var reg 1 J s0_valid $end
$var reg 16 K s0_w [15:0] $end
$var reg 32 L s1_acc_in [31:0] $end
$var reg 1 M s1_flush $end
$var reg 1 N s1_mode $end
$var reg 32 O s1_mul [31:0] $end
$var reg 1 P s1_stat $end
$var reg 1 Q s1_valid $end
$var reg 1 ! valid_out $end
$var reg 16 R weight_reg [15:0] $end
$var reg 32 S ws_acc [31:0] $end
$var reg 1 T ws_flushed $end
$scope function fp16_to_fp32 $end
$var reg 5 U exp16 [4:0] $end
$var reg 16 V fp16 [15:0] $end
$var reg 1 W is_inf $end
$var reg 1 X is_nan $end
$var reg 1 Y is_zero $end
$upscope $end
$scope module u_fp16_mul $end
$var wire 1 Z _unused $end
$var wire 16 [ a [15:0] $end
$var wire 1 \ a_inf $end
$var wire 1 ] a_nan $end
$var wire 1 ^ a_zero $end
$var wire 16 _ b [15:0] $end
$var wire 1 ` b_inf $end
$var wire 1 a b_nan $end
$var wire 1 b b_zero $end
$var wire 1 ( clk $end
$var wire 1 c do_inc $end
$var wire 1 ) en $end
$var wire 1 d exp_ovf $end
$var wire 1 e is_inf $end
$var wire 1 f is_nan $end
$var wire 1 g is_zero $end
$var wire 1 h lz1 $end
$var wire 1 i lz10 $end
$var wire 1 j lz11 $end
$var wire 1 k lz12 $end
$var wire 1 l lz13 $end
$var wire 1 m lz14 $end
$var wire 1 n lz15 $end
$var wire 1 o lz16 $end
$var wire 1 p lz17 $end
$var wire 1 q lz18 $end
$var wire 1 r lz19 $end
$var wire 1 s lz2 $end
$var wire 1 t lz20 $end
$var wire 1 u lz21 $end
$var wire 1 v lz3 $end
$var wire 1 w lz4 $end
$var wire 1 x lz5 $end
$var wire 1 y lz6 $end
$var wire 1 z lz7 $end
$var wire 1 { lz8 $end
$var wire 1 | lz9 $end
$var wire 32 } result [31:0] $end
$var wire 1 / rst_n $end
$var wire 1 ~ sign_r $end
$var wire 1 !" sub_do_inc $end
$var wire 22 "" wb [21:0] $end
$var wire 22 #" wa [21:0] $end
$var wire 1 $" too_small $end
$var wire 1 %" sub_sticky $end
$var wire 22 &" sub_s5 [21:0] $end
$var wire 22 '" sub_s4 [21:0] $end
$var wire 22 (" sub_s3 [21:0] $end
$var wire 22 )" sub_s2 [21:0] $end
$var wire 22 *" sub_s1 [21:0] $end
$var wire 1 +" sub_rounds_to_normal $end
$var wire 10 ," sub_mant_raw [9:0] $end
$var wire 10 -" sub_mant_r [9:0] $end
$var wire 11 ." sub_mant_ext [10:0] $end
$var wire 22 /" sub_in [21:0] $end
$var wire 1 0" sub_guard $end
$var wire 1 1" sticky_raw $end
$var wire 22 2" sticky_mask [21:0] $end
$var wire 1 3" sb $end
$var wire 1 4" sa $end
$var wire 22 5" rs5 [21:0] $end
$var wire 22 6" rs4 [21:0] $end
$var wire 22 7" rs3 [21:0] $end
$var wire 22 8" rs2 [21:0] $end
$var wire 22 9" rs1 [21:0] $end
$var wire 5 :" rs [4:0] $end
$var wire 1 ;" rnd_ovf $end
$var wire 44 <" prod_full [43:0] $end
$var wire 22 =" prod [21:0] $end
$var wire 10 >" mb [9:0] $end
$var wire 10 ?" mant_r_raw [9:0] $end
$var wire 10 @" mant_norm [9:0] $end
$var wire 11 A" mant_ext [10:0] $end
$var wire 11 B" mant_b [10:0] $end
$var wire 11 C" mant_a [10:0] $end
$var wire 10 D" ma [9:0] $end
$var wire 5 E" lzc [4:0] $end
$var wire 1 F" lz0 $end
$var wire 1 G" is_sub $end
$var wire 1 H" guard_bit $end
$var wire 16 I" fp16_result [15:0] $end
$var wire 32 J" fp16_ext [31:0] $end
$var wire 5 K" extra_shift [4:0] $end
$var wire 1 L" exp_unf $end
$var wire 7 M" exp_after_rnd [6:0] $end
$var wire 6 N" eff_eb [5:0] $end
$var wire 6 O" eff_ea [5:0] $end
$var wire 5 P" eb [4:0] $end
$var wire 5 Q" ea [4:0] $end
$var wire 7 R" biased_exp_s [6:0] $end
$var parameter 32 S" ACC_W $end
$upscope $end
$scope module u_fp32_add $end
$var wire 32 T" a [31:0] $end
$var wire 1 U" a_bigger $end
$var wire 1 V" a_inf $end
$var wire 1 W" a_nan $end
$var wire 1 X" a_zero $end
$var wire 1 Y" add_carry $end
$var wire 1 Z" any_inf $end
$var wire 1 [" any_nan $end
$var wire 32 \" b [31:0] $end
$var wire 1 ]" b_inf $end
$var wire 1 ^" b_nan $end
$var wire 1 _" b_zero $end
$var wire 1 `" both_zero $end
$var wire 1 a" do_inc $end
$var wire 1 b" do_sub $end
$var wire 1 c" inf_same $end
$var wire 1 d" lz1 $end
$var wire 1 e" lz10 $end
$var wire 1 f" lz11 $end
$var wire 1 g" lz12 $end
$var wire 1 h" lz13 $end
$var wire 1 i" lz14 $end
$var wire 1 j" lz15 $end
$var wire 1 k" lz16 $end
$var wire 1 l" lz17 $end
$var wire 1 m" lz18 $end
$var wire 1 n" lz19 $end
$var wire 1 o" lz2 $end
$var wire 1 p" lz20 $end
$var wire 1 q" lz21 $end
$var wire 1 r" lz22 $end
$var wire 1 s" lz23 $end
$var wire 1 t" lz24 $end
$var wire 1 u" lz25 $end
$var wire 1 v" lz3 $end
$var wire 1 w" lz4 $end
$var wire 1 x" lz5 $end
$var wire 1 y" lz6 $end
$var wire 1 z" lz7 $end
$var wire 1 {" lz8 $end
$var wire 1 |" lz9 $end
$var wire 1 }" one_zero $end
$var wire 23 ~" pack_mant [22:0] $end
$var wire 32 !# zero_res [31:0] $end
$var wire 27 "# sum_raw [26:0] $end
$var wire 26 ## sub_mant [25:0] $end
$var wire 9 $# sub_exp [8:0] $end
$var wire 1 %# sticky $end
$var wire 8 &# shift_amt [7:0] $end
$var wire 27 '# sh9 [26:0] $end
$var wire 27 (# sh8 [26:0] $end
$var wire 27 )# sh7 [26:0] $end
$var wire 27 *# sh6 [26:0] $end
$var wire 27 +# sh5 [26:0] $end
$var wire 27 ,# sh4 [26:0] $end
$var wire 27 -# sh3 [26:0] $end
$var wire 27 .# sh26 [26:0] $end
$var wire 27 /# sh25 [26:0] $end
$var wire 27 0# sh24 [26:0] $end
$var wire 27 1# sh23 [26:0] $end
$var wire 27 2# sh22 [26:0] $end
$var wire 27 3# sh21 [26:0] $end
$var wire 27 4# sh20 [26:0] $end
$var wire 27 5# sh2 [26:0] $end
$var wire 27 6# sh19 [26:0] $end
$var wire 27 7# sh18 [26:0] $end
$var wire 27 8# sh17 [26:0] $end
$var wire 27 9# sh16 [26:0] $end
$var wire 27 :# sh15 [26:0] $end
$var wire 27 ;# sh14 [26:0] $end
$var wire 27 <# sh13 [26:0] $end
$var wire 27 =# sh12 [26:0] $end
$var wire 27 ># sh11 [26:0] $end
$var wire 27 ?# sh10 [26:0] $end
$var wire 27 @# sh1 [26:0] $end
$var wire 1 A# sb $end
$var wire 1 B# sa $end
$var wire 1 C# s_sml $end
$var wire 1 D# s_big $end
$var wire 1 E# rnd_stk $end
$var wire 1 F# rnd_ovf $end
$var wire 32 G# result [31:0] $end
$var wire 9 H# pack_exp [8:0] $end
$var wire 32 I# one_zero_res [31:0] $end
$var wire 32 J# normal_res [31:0] $end
$var wire 1 K# norm_sign $end
$var wire 26 L# norm_mant [25:0] $end
$var wire 9 M# norm_exp [8:0] $end
$var wire 32 N# nan_res [31:0] $end
$var wire 23 O# mb [22:0] $end
$var wire 23 P# mant_pre [22:0] $end
$var wire 24 Q# mant_ext [23:0] $end
$var wire 23 R# ma [22:0] $end
$var wire 26 S# m_sml_sh [25:0] $end
$var wire 26 T# m_sml_final [25:0] $end
$var wire 26 U# m_sml_ext [25:0] $end
$var wire 24 V# m_sml [23:0] $end
$var wire 26 W# m_big_ext [25:0] $end
$var wire 24 X# m_big [23:0] $end
$var wire 24 Y# m_b [23:0] $end
$var wire 24 Z# m_a [23:0] $end
$var wire 5 [# lz_full [4:0] $end
$var wire 1 \# lz0 $end
$var wire 32 ]# inf_res [31:0] $end
$var wire 1 ^# guard_bit $end
$var wire 23 _# final_mant [22:0] $end
$var wire 9 `# final_exp [8:0] $end
$var wire 8 a# eb [7:0] $end
$var wire 8 b# ea [7:0] $end
$var wire 9 c# e_sml [8:0] $end
$var wire 9 d# e_big [8:0] $end
$var wire 9 e# e_b [8:0] $end
$var wire 9 f# e_a [8:0] $end
$var wire 26 g# add_mant [25:0] $end
$var wire 9 h# add_exp [8:0] $end
$upscope $end
$scope module u_ws_fp32_add $end
$var wire 32 i# a [31:0] $end
$var wire 1 j# a_bigger $end
$var wire 1 k# a_inf $end
$var wire 1 l# a_nan $end
$var wire 1 m# a_zero $end
$var wire 1 n# add_carry $end
$var wire 1 o# any_inf $end
$var wire 1 p# any_nan $end
$var wire 32 q# b [31:0] $end
$var wire 1 r# b_inf $end
$var wire 1 s# b_nan $end
$var wire 1 t# b_zero $end
$var wire 1 u# both_zero $end
$var wire 1 v# do_inc $end
$var wire 1 w# do_sub $end
$var wire 1 x# inf_same $end
$var wire 1 y# lz1 $end
$var wire 1 z# lz10 $end
$var wire 1 {# lz11 $end
$var wire 1 |# lz12 $end
$var wire 1 }# lz13 $end
$var wire 1 ~# lz14 $end
$var wire 1 !$ lz15 $end
$var wire 1 "$ lz16 $end
$var wire 1 #$ lz17 $end
$var wire 1 $$ lz18 $end
$var wire 1 %$ lz19 $end
$var wire 1 &$ lz2 $end
$var wire 1 '$ lz20 $end
$var wire 1 ($ lz21 $end
$var wire 1 )$ lz22 $end
$var wire 1 *$ lz23 $end
$var wire 1 +$ lz24 $end
$var wire 1 ,$ lz25 $end
$var wire 1 -$ lz3 $end
$var wire 1 .$ lz4 $end
$var wire 1 /$ lz5 $end
$var wire 1 0$ lz6 $end
$var wire 1 1$ lz7 $end
$var wire 1 2$ lz8 $end
$var wire 1 3$ lz9 $end
$var wire 1 4$ one_zero $end
$var wire 23 5$ pack_mant [22:0] $end
$var wire 32 6$ zero_res [31:0] $end
$var wire 27 7$ sum_raw [26:0] $end
$var wire 26 8$ sub_mant [25:0] $end
$var wire 9 9$ sub_exp [8:0] $end
$var wire 1 :$ sticky $end
$var wire 8 ;$ shift_amt [7:0] $end
$var wire 27 <$ sh9 [26:0] $end
$var wire 27 =$ sh8 [26:0] $end
$var wire 27 >$ sh7 [26:0] $end
$var wire 27 ?$ sh6 [26:0] $end
$var wire 27 @$ sh5 [26:0] $end
$var wire 27 A$ sh4 [26:0] $end
$var wire 27 B$ sh3 [26:0] $end
$var wire 27 C$ sh26 [26:0] $end
$var wire 27 D$ sh25 [26:0] $end
$var wire 27 E$ sh24 [26:0] $end
$var wire 27 F$ sh23 [26:0] $end
$var wire 27 G$ sh22 [26:0] $end
$var wire 27 H$ sh21 [26:0] $end
$var wire 27 I$ sh20 [26:0] $end
$var wire 27 J$ sh2 [26:0] $end
$var wire 27 K$ sh19 [26:0] $end
$var wire 27 L$ sh18 [26:0] $end
$var wire 27 M$ sh17 [26:0] $end
$var wire 27 N$ sh16 [26:0] $end
$var wire 27 O$ sh15 [26:0] $end
$var wire 27 P$ sh14 [26:0] $end
$var wire 27 Q$ sh13 [26:0] $end
$var wire 27 R$ sh12 [26:0] $end
$var wire 27 S$ sh11 [26:0] $end
$var wire 27 T$ sh10 [26:0] $end
$var wire 27 U$ sh1 [26:0] $end
$var wire 1 V$ sb $end
$var wire 1 W$ sa $end
$var wire 1 X$ s_sml $end
$var wire 1 Y$ s_big $end
$var wire 1 Z$ rnd_stk $end
$var wire 1 [$ rnd_ovf $end
$var wire 32 \$ result [31:0] $end
$var wire 9 ]$ pack_exp [8:0] $end
$var wire 32 ^$ one_zero_res [31:0] $end
$var wire 32 _$ normal_res [31:0] $end
$var wire 1 `$ norm_sign $end
$var wire 26 a$ norm_mant [25:0] $end
$var wire 9 b$ norm_exp [8:0] $end
$var wire 32 c$ nan_res [31:0] $end
$var wire 23 d$ mb [22:0] $end
$var wire 23 e$ mant_pre [22:0] $end
$var wire 24 f$ mant_ext [23:0] $end
$var wire 23 g$ ma [22:0] $end
$var wire 26 h$ m_sml_sh [25:0] $end
$var wire 26 i$ m_sml_final [25:0] $end
$var wire 26 j$ m_sml_ext [25:0] $end
$var wire 24 k$ m_sml [23:0] $end
$var wire 26 l$ m_big_ext [25:0] $end
$var wire 24 m$ m_big [23:0] $end
$var wire 24 n$ m_b [23:0] $end
$var wire 24 o$ m_a [23:0] $end
$var wire 5 p$ lz_full [4:0] $end
$var wire 1 q$ lz0 $end
$var wire 32 r$ inf_res [31:0] $end
$var wire 1 s$ guard_bit $end
$var wire 23 t$ final_mant [22:0] $end
$var wire 9 u$ final_exp [8:0] $end
$var wire 8 v$ eb [7:0] $end
$var wire 8 w$ ea [7:0] $end
$var wire 9 x$ e_sml [8:0] $end
$var wire 9 y$ e_big [8:0] $end
$var wire 9 z$ e_b [8:0] $end
$var wire 9 {$ e_a [8:0] $end
$var wire 26 |$ add_mant [25:0] $end
$var wire 9 }$ add_exp [8:0] $end
$upscope $end
$upscope $end
$scope task check_result $end
$var reg 32 ~$ exp [31:0] $end
$var reg 32 !% got [31:0] $end
$var integer 32 "% test_id [31:0] $end
$upscope $end
$scope task drive_beat $end
$var reg 16 #% a [15:0] $end
$var reg 32 $% acc [31:0] $end
$var reg 1 %% fl $end
$var reg 16 &% w [15:0] $end
$upscope $end
$scope task drive_ws_beat $end
$var reg 16 '% a [15:0] $end
$var reg 32 (% acc [31:0] $end
$upscope $end
$scope task reset_dut $end
$upscope $end
$upscope $end
$enddefinitions $end
$comment Show the parameter values. $end
$dumpall
b100000 S"
b10000 C
b100000 B
b10000 %
b1010 $
b100000 #
$end
#0
$dumpvars
bx (%
bx '%
bx &%
x%%
bx $%
bx #%
bx "%
bx !%
bx ~$
bx }$
bx |$
b0xxxxxxxx {$
b0xxxxxxxx z$
b0xxxxxxxx y$
b0xxxxxxxx x$
bx w$
bx v$
bx u$
bx t$
xs$
bx11111111x0000000000000000000000 r$
xq$
bx p$
b1xxxxxxxxxx0000000000000 o$
b1xxxxxxxxxxxxxxxxxxxxxxx n$
b1xxxxxxxxxxxxxxxxxxxxxxx m$
b1xxxxxxxxxxxxxxxxxxxxxxx00 l$
b1xxxxxxxxxxxxxxxxxxxxxxx k$
b1xxxxxxxxxxxxxxxxxxxxxxx00 j$
bx i$
bx h$
bx0000000000000 g$
bx f$
bx e$
bx d$
bx c$
bx b$
bx a$
x`$
bx _$
bx ^$
bx ]$
bx \$
x[$
xZ$
xY$
xX$
xW$
xV$
bx U$
bx T$
bx S$
bx R$
bx Q$
bx P$
bx O$
bx N$
bx M$
bx L$
bx K$
bx J$
bx I$
bx H$
bx G$
bx F$
bx E$
bx D$
bx C$
bx B$
bx A$
bx @$
bx ?$
bx >$
bx =$
bx <$
bx ;$
x:$
bx 9$
bx 8$
bx 7$
b0 6$
bx 5$
x4$
x3$
x2$
x1$
x0$
x/$
x.$
x-$
x,$
x+$
x*$
x)$
x($
x'$
x&$
x%$
x$$
x#$
x"$
x!$
x~#
x}#
x|#
x{#
xz#
xy#
xx#
xw#
xv#
xu#
xt#
xs#
xr#
bx q#
xp#
xo#
xn#
xm#
xl#
xk#
xj#
bx0000000000000 i#
bx h#
bx g#
b0xxxxxxxx f#
b0xxxxxxxx e#
b0xxxxxxxx d#
b0xxxxxxxx c#
bx b#
bx a#
bx `#
bx _#
x^#
bx11111111x0000000000000000000000 ]#
x\#
bx [#
b1xxxxxxxxxx0000000000000 Z#
b1xxxxxxxxxxxxxxxxxxxxxxx Y#
b1xxxxxxxxxxxxxxxxxxxxxxx X#
b1xxxxxxxxxxxxxxxxxxxxxxx00 W#
b1xxxxxxxxxxxxxxxxxxxxxxx V#
b1xxxxxxxxxxxxxxxxxxxxxxx00 U#
bx T#
bx S#
bx0000000000000 R#
bx Q#
bx P#
bx O#
bx N#
bx M#
bx L#
xK#
bx J#
bx I#
bx H#
bx G#
xF#
xE#
xD#
xC#
xB#
xA#
bx @#
bx ?#
bx >#
bx =#
bx <#
bx ;#
bx :#
bx 9#
bx 8#
bx 7#
bx 6#
bx 5#
bx 4#
bx 3#
bx 2#
bx 1#
bx 0#
bx /#
bx .#
bx -#
bx ,#
bx +#
bx *#
bx )#
bx (#
bx '#
bx &#
x%#
bx $#
bx ##
bx "#
b0 !#
bx ~"
x}"
x|"
x{"
xz"
xy"
xx"
xw"
xv"
xu"
xt"
xs"
xr"
xq"
xp"
xo"
xn"
xm"
xl"
xk"
xj"
xi"
xh"
xg"
xf"
xe"
xd"
xc"
xb"
xa"
x`"
x_"
x^"
x]"
bx \"
x["
xZ"
xY"
xX"
xW"
xV"
xU"
bx0000000000000 T"
bx R"
bx Q"
bx P"
b0xxxxx O"
b0xxxxx N"
bx M"
xL"
bx K"
b0xxxxxxxxxxxxxxxx J"
bx I"
xH"
xG"
xF"
bx E"
bx D"
bx C"
bx B"
bx A"
bx @"
bx ?"
bx >"
bx ="
bx <"
x;"
bx :"
bx 9"
bx 8"
bx 7"
bx 6"
bx 5"
x4"
x3"
bx 2"
x1"
x0"
bx00000000000 /"
bx ."
bx -"
bx ,"
x+"
bx0000000000 *"
bx00000000 )"
bx0000 ("
bx '"
bx &"
x%"
x$"
b0xxxxxxxxxxx #"
b0xxxxxxxxxxx ""
x!"
x~
b0xxxxxxxxxxxxxxxx }
x|
x{
xz
xy
xx
xw
xv
xu
xt
xs
xr
xq
xp
xo
xn
xm
xl
xk
xj
xi
xh
xg
xf
xe
xd
xc
xb
xa
x`
bx _
x^
x]
x\
bx [
0Z
xY
xX
xW
bx V
bx U
xT
bx S
bx R
xQ
xP
bx O
xN
xM
bx L
bx K
xJ
xI
xH
xG
bx F
bx E
bx D
b0xxxxxxxxxxxxxxxx A
bx0000000000000 @
bx ?
bx >
bx =
bx <
bx ;
bx :
bx 9
b0 8
b0 7
b0 6
b0 5
bx 4
b0 3
b0 2
b0 1
00
0/
0.
0-
bx ,
bx +
0*
0)
0(
b0 '
b0 &
bx "
x!
$end
#5000
b0 ##
b0 $#
b0 8$
b0 9$
b0 @#
b0 5#
b0 -#
b0 ,#
b0 +#
b0 *#
b0 )#
b0 (#
b0 '#
b0 ?#
b0 >#
b0 =#
b0 <#
b0 ;#
b0 :#
b0 9#
b0 8#
b0 7#
b0 6#
b0 4#
b0 3#
b0 2#
b0 1#
b0 0#
b0 /#
b0 .#
b0 U$
b0 J$
b0 B$
b0 A$
b0 @$
b0 ?$
b0 >$
b0 =$
b0 <$
b0 T$
b0 S$
b0 R$
b0 Q$
b0 P$
b0 O$
b0 N$
b0 M$
b0 L$
b0 K$
b0 I$
b0 H$
b0 G$
b0 F$
b0 E$
b0 D$
b0 C$
b11010 [#
b11010 p$
1u"
1,$
1t"
1+$
1s"
1*$
1r"
1)$
1q"
1($
1p"
1'$
1n"
1%$
1m"
1$$
0d
1l"
1#$
1L"
1k"
1"$
b11 K"
b1011110 M"
0H"
b0 2"
1j"
1!$
b10101 :"
1G"
1$"
b1011110 R"
b10110 E"
1i"
1~#
1u
1h"
1}#
1t
b0 -"
0+"
1g"
1|#
1r
0%"
b0 ."
0!"
1f"
1{#
1q
00"
1e"
1z#
1p
1|"
13$
1o
1{"
12$
1n
b0 ,"
1z"
11$
1m
b0 ?"
1y"
b0 ~"
b0 _#
10$
b0 5$
b0 t$
1l
0;"
b0 &"
b10 H#
1x"
0F#
b10 ]$
1/$
0[$
1k
b0 A"
0c
b0 '"
b10 `#
1w"
b0 Q#
0a"
b10 u$
1.$
b0 f$
0v#
1j
b0 ("
1v"
b0 P#
0^#
0E#
1-$
b0 e$
0s$
0Z$
1i
b0 )"
1o"
b10000000000000000000000000 L#
1&$
b10000000000000000000000000 a$
1|
b0 *"
1Y"
1d"
b10000000000000000000000000 g#
1n#
1y#
b10000000000000000000000000 |$
1{
b0 @"
b0 /"
1\#
1q$
1z
b100000000000000000000000000 "#
b100000000000000000000000000 7$
1y
1x
b10000000000000000000000000 T#
b0 >
b0 G#
b10000000000000000000000000 i$
b0 9
b0 \$
1w
b0 5"
b0 A
b0 }
b0 J"
b0 I"
b10000000000000000000000000 S#
0%#
b10000000000000000000000000 h$
0:$
1v
b0 6"
b10 M#
b0 &#
b10 h#
0Z"
b10 b$
b0 ;$
b10 }$
0o#
1s
b0 7"
b1000000000000000000000000 J#
0K#
0b"
1U"
b1 d#
b1 c#
1`"
0}"
0["
b1000000000000000000000000 _$
0`$
0w#
1j#
b1 y$
b1 x$
1u#
04$
0p#
1h
b0 8"
1g
0f
0e
b1111111100000000000000000000000 ]#
0D#
0C#
1c"
b1 f#
1X"
0V"
0W"
b1111111100000000000000000000000 r$
0Y$
0X$
1x#
b1 {$
1m#
0k#
0l#
1F"
b0 9"
01"
0B#
b0 b#
b100000000000000000000000 Z#
b0 R#
0W$
b0 w$
b100000000000000000000000 o$
b0 g$
b1 e#
1_"
0]"
0^"
b10000000000000000000000000 W#
b100000000000000000000000 X#
b10000000000000000000000000 U#
b100000000000000000000000 V#
b0 ="
b1 N"
1b
0`
0a
0~
b1 O"
1^
0\
0]
b0 @
b0 T"
b0 i#
0X
0W
1Y
b0 U
b0 V
b1 z$
1t#
0r#
0s#
b10000000000000000000000000 l$
b100000000000000000000000 m$
b10000000000000000000000000 j$
b100000000000000000000000 k$
0A#
b0 a#
b100000000000000000000000 Y#
b0 O#
b0 N#
b0 I#
b0 ;
b0 <
b0 =
03"
b0 <"
b0 P"
b0 ""
b0 B"
b0 >"
b0 :
04"
b0 Q"
b0 #"
b0 C"
b0 D"
0V$
b0 v$
b100000000000000000000000 n$
b0 d$
b0 c$
b0 ^$
b0 ?
b0 \"
b0 R
0I
0H
0G
0J
b0 F
b0 _
b0 K
b0 [
b0 L
0N
0P
0M
0Q
b0 O
0!
b0 "
b0 D
0T
b0 S
b0 q#
b0 E
1(
#10000
0(
#15000
1(
#20000
0(
#25000
1(
#30000
0(
#35000
1/
1(
#40000
0(
#45000
b11 ,
1(
#50000
0(
#55000
1(
#56000
1Z
1)
1-
b11 1
b11 8
#60000
0Z
0(
#65000
0^
b11 :
b11 #"
b11 C"
b11 D"
b11 R
b11 K
b11 [
1J
1Z
1(
#70000
0Z
0(
#75000
1Q
1Z
1(
#80000
0Z
0(
#85000
1Z
1(
#86000
b0 (%
b1 '%
#90000
0Z
0(
#95000
1Z
1(
#96000
0-
b1 &
b1 6
b0 1
b0 8
#100000
0Z
0(
#105000
b1 K"
b1100000 M"
b10111 :"
b1100000 R"
b10100 E"
b0 8"
0g
0t
0u
b1 9"
0b
b11 ="
b11 ;
b11 <
b1 =
b11 <"
b1 ""
b1 B"
b1 >"
b1 F
b1 _
1Z
1(
#110000
0Z
0(
#115000
0t"
0+$
0s"
0*$
0r"
0)$
0{"
0q"
02$
0($
0z"
0p"
01$
0'$
0y"
0n"
00$
0%$
0x"
0m"
0/$
0$$
1E#
0w"
b10000000011000000000000001 ##
b1110001 $#
0l"
1Z$
0.$
b10000000011000000000000001 8$
b1110001 9$
0#$
0v"
0k"
0-$
0"$
0o"
b0 [#
0j"
0&$
b0 p$
0!$
0Y"
0d"
0u"
0i"
b110000000000000 ~"
b110000000000000 _#
0n#
0y#
0,$
0~#
b110000000000000 5$
b110000000000000 t$
0\#
b111000100000000110000000000000 J#
0h"
0q$
b111000100000000110000000000000 _$
0}#
b10000000011000000000000001 .#
b10000000011000000000000001 /#
b10000000011000000000000001 0#
b10000000011000000000000001 1#
b10000000011000000000000001 2#
b10000000011000000000000001 3#
b10000000011000000000000001 4#
b10000000011000000000000001 6#
b10000000011000000000000001 7#
b10000000011000000000000001 8#
b10000000011000000000000001 9#
b10000000011000000000000001 :#
b10000000011000000000000001 ;#
b10000000011000000000000001 <#
b10000000011000000000000001 =#
b1110001 H#
0g"
b110000000000000 Q#
b110000000000000 P#
b10000000011000000000000001 C$
b10000000011000000000000001 D$
b10000000011000000000000001 E$
b10000000011000000000000001 F$
b10000000011000000000000001 G$
b10000000011000000000000001 H$
b10000000011000000000000001 I$
b10000000011000000000000001 K$
b10000000011000000000000001 L$
b10000000011000000000000001 M$
b10000000011000000000000001 N$
b10000000011000000000000001 O$
b10000000011000000000000001 P$
b10000000011000000000000001 Q$
b10000000011000000000000001 R$
b1110001 ]$
0|#
b110000000000000 f$
b110000000000000 e$
b1 T#
b1110001 `#
b111000100000000110000000000000 >
b111000100000000110000000000000 G#
0f"
b10000000011000000000000001 L#
b1 i$
b1110001 u$
b111000100000000110000000000000 9
b111000100000000110000000000000 \$
0{#
b10000000011000000000000001 a$
b0 S#
1%#
b1110001 M#
0|"
0e"
b10000000011000000000000001 g#
b0 h$
1:$
b1110001 b$
03$
0z#
b10000000011000000000000001 |$
b1110000 &#
b1110001 h#
b1110000 ;$
b1110001 }$
b1110001 d#
0`"
1}"
b111000100000000110000000000000 I#
b10000000011000000000000001 >#
b10000000011000000000000001 ?#
b10000000011000000000000001 '#
b10000000011000000000000001 (#
b10000000011000000000000001 )#
b10000000011000000000000001 *#
b10000000011000000000000001 +#
b10000000011000000000000001 ,#
b10000000011000000000000001 -#
b10000000011000000000000001 5#
b10000000011000000000000001 @#
b10000000011000000000000001 "#
b1110001 y$
0u#
14$
b111000100000000110000000000000 ^$
b10000000011000000000000001 S$
b10000000011000000000000001 T$
b10000000011000000000000001 <$
b10000000011000000000000001 =$
b10000000011000000000000001 >$
b10000000011000000000000001 ?$
b10000000011000000000000001 @$
b10000000011000000000000001 A$
b10000000011000000000000001 B$
b10000000011000000000000001 J$
b10000000011000000000000001 U$
b10000000011000000000000001 7$
b1110001 f#
0X"
b10000000011000000000000000 W#
b100000000110000000000000 X#
b1110001 {$
0m#
b10000000011000000000000000 l$
b100000000110000000000000 m$
b1110001 b#
b100000000110000000000000 Z#
b110000000000000 R#
b1110001 w$
b100000000110000000000000 o$
b110000000000000 g$
b111000100000000110000000000000 @
b111000100000000110000000000000 T"
b111000100000000110000000000000 i#
0Y
b11 V
b11 O
1Z
1(
#120000
0Z
0(
#125000
04$
0t#
b10000000000000000000001100 j$
b100000000000000000000011 k$
b100000000000000000000011 n$
b11 d$
b11 c$
b11 S
b11 q#
b11 "
b11 D
1Z
1(
#126000
b11 (%
b10 '%
#130000
0Z
0(
#135000
b10000000000000000000011000 j$
b100000000000000000000110 k$
b100000000000000000000110 n$
b110 d$
b110 c$
b110 S
b110 q#
1Z
1(
#136000
b11 '
b11 7
b10 &
b10 6
#140000
0Z
0(
#145000
b110 7"
b110 8"
b0 K"
b1100001 M"
b11000 :"
b1100001 R"
b10011 E"
0r
b110 9"
0}"
0_"
b10000000000000000000001100 U#
b100000000000000000000011 V#
b110 ="
b100000000000000000000011 Y#
b11 O#
b11 N#
b10000000000000000000100100 j$
b100000000000000000001001 k$
b110 ;
b110 <
b10 =
b110 <"
b10 ""
b10 B"
b10 >"
b11 ?
b11 \"
b100000000000000000001001 n$
b1001 d$
b1001 c$
b10 F
b10 _
b11 L
b1001 S
b1001 q#
1Z
1(
#150000
0Z
0(
